05/24/2022 16:41:28 - WARNING - __main__ - Process rank: -1, device: cpu, n_gpu: 0distributed training: False, 16-bits training: False
05/24/2022 16:41:28 - INFO - __main__ - Training/evaluation parameters TrainingArguments(
_n_gpu=0,
adafactor=False,
adam_beta1=0.9,
adam_beta2=0.999,
adam_epsilon=1e-08,
dataloader_drop_last=False,
dataloader_num_workers=0,
dataloader_pin_memory=True,
ddp_find_unused_parameters=None,
debug=[],
deepspeed=None,
disable_tqdm=False,
do_eval=True,
do_predict=False,
do_train=False,
eval_accumulation_steps=None,
eval_steps=None,
evaluation_strategy=IntervalStrategy.NO,
fp16=False,
fp16_backend=auto,
fp16_full_eval=False,
fp16_opt_level=O1,
gradient_accumulation_steps=1,
greater_is_better=None,
group_by_length=False,
ignore_data_skip=False,
label_names=None,
label_smoothing_factor=0.0,
learning_rate=2e-05,
length_column_name=length,
load_best_model_at_end=False,
local_rank=-1,
log_level=-1,
log_level_replica=-1,
log_on_each_node=True,
logging_dir=/home/yuanfeng/debug/256/sst2/runs/May24_16-41-28_optane03,
logging_first_step=False,
logging_steps=500,
logging_strategy=IntervalStrategy.STEPS,
lr_scheduler_type=SchedulerType.LINEAR,
max_grad_norm=1.0,
max_steps=-1,
metric_for_best_model=None,
mp_parameters=,
no_cuda=False,
num_train_epochs=2.0,
output_dir=/home/yuanfeng/debug/256/sst2/,
overwrite_output_dir=False,
past_index=-1,
per_device_eval_batch_size=64,
per_device_train_batch_size=1,
prediction_loss_only=False,
push_to_hub=False,
push_to_hub_model_id=sst2,
push_to_hub_organization=None,
push_to_hub_token=<PUSH_TO_HUB_TOKEN>,
remove_unused_columns=True,
report_to=[],
resume_from_checkpoint=None,
run_name=/home/yuanfeng/debug/256/sst2/,
save_on_each_node=False,
save_steps=500,
save_strategy=IntervalStrategy.STEPS,
save_total_limit=None,
seed=42,
sharded_ddp=[],
skip_memory_metrics=True,
tpu_metrics_debug=False,
tpu_num_cores=None,
use_legacy_prediction_loop=False,
warmup_ratio=0.0,
warmup_steps=0,
weight_decay=0.0,
)
05/24/2022 16:41:29 - INFO - datasets.info - Loading Dataset Infos from /home/yuanfeng/.cache/huggingface/modules/datasets_modules/datasets/glue/dacbe3125aa31d7f70367a07a8a9e72a5a0bfeb5fc42e75c9db75b96da6053ad
05/24/2022 16:41:29 - INFO - datasets.builder - Overwrite dataset info from restored data version.
05/24/2022 16:41:29 - INFO - datasets.info - Loading Dataset info from /home/yuanfeng/.cache/huggingface/datasets/glue/sst2/1.0.0/dacbe3125aa31d7f70367a07a8a9e72a5a0bfeb5fc42e75c9db75b96da6053ad
05/24/2022 16:41:29 - WARNING - datasets.builder - Reusing dataset glue (/home/yuanfeng/.cache/huggingface/datasets/glue/sst2/1.0.0/dacbe3125aa31d7f70367a07a8a9e72a5a0bfeb5fc42e75c9db75b96da6053ad)
05/24/2022 16:41:29 - INFO - datasets.info - Loading Dataset info from /home/yuanfeng/.cache/huggingface/datasets/glue/sst2/1.0.0/dacbe3125aa31d7f70367a07a8a9e72a5a0bfeb5fc42e75c9db75b96da6053ad
05/24/2022 16:41:31 - WARNING - datasets.arrow_dataset - Loading cached processed dataset at /home/yuanfeng/.cache/huggingface/datasets/glue/sst2/1.0.0/dacbe3125aa31d7f70367a07a8a9e72a5a0bfeb5fc42e75c9db75b96da6053ad/cache-6040857d4afa9e7f.arrow
05/24/2022 16:41:31 - WARNING - datasets.arrow_dataset - Loading cached processed dataset at /home/yuanfeng/.cache/huggingface/datasets/glue/sst2/1.0.0/dacbe3125aa31d7f70367a07a8a9e72a5a0bfeb5fc42e75c9db75b96da6053ad/cache-f7a56edf14abb1ba.arrow
05/24/2022 16:41:31 - WARNING - datasets.arrow_dataset - Loading cached processed dataset at /home/yuanfeng/.cache/huggingface/datasets/glue/sst2/1.0.0/dacbe3125aa31d7f70367a07a8a9e72a5a0bfeb5fc42e75c9db75b96da6053ad/cache-a42a94f3eaf2fba6.arrow
05/24/2022 16:41:32 - INFO - __main__ - *** Evaluate ***
Layer:  0   [5.4910e+03 1.5023e+04 1.6236e+04 3.4200e+02 1.4410e+03 6.8510e+03
 1.2755e+04 4.0550e+03 1.4629e+04 6.4710e+03 4.0430e+03 9.6900e+02
 1.2300e+02 1.1237e+04 1.6348e+04 1.6630e+03 1.4202e+04 1.8326e+04
 1.0525e+04 1.7043e+04 4.6240e+03 1.6411e+04 5.5890e+03 1.0510e+04
 1.4721e+04 1.0813e+04 1.6481e+04 6.7930e+03 1.2856e+04 5.8170e+03
 1.5520e+03 1.5893e+04 1.4072e+04 4.1770e+03 9.7100e+02 1.5664e+04
 1.0800e+02 1.0605e+04 5.1340e+03 1.3543e+04 5.7000e+03 6.3730e+03
 1.3410e+03 1.4428e+04 7.4910e+03 1.4160e+03 8.6780e+03 5.0730e+03
 1.1757e+04 5.7000e+03 1.8844e+04 5.7710e+03 1.8121e+04 1.9751e+04
 1.3008e+04 2.5540e+03 4.0700e+03 2.7050e+03 3.1040e+03 4.1700e+02
 8.5260e+03 1.8961e+04 1.2235e+04 1.1684e+04 1.0455e+04 1.9450e+04
 1.2493e+04 1.6379e+04 1.1063e+04 1.4721e+04 3.3840e+03 1.9340e+03
 5.8150e+03 1.3944e+04 3.2030e+03 9.1320e+03 1.7845e+04 6.0780e+03
 8.0340e+03 7.3580e+03 1.9891e+04 1.4259e+04 1.0491e+04 9.3830e+03
 9.7100e+02 7.4100e+03 1.6720e+03 1.3508e+04 1.4445e+04 8.2620e+03
 6.9280e+03 1.8362e+04 9.4230e+03 1.8114e+04 8.9830e+03 5.5510e+03
 1.4311e+04 1.5649e+04 6.9470e+03 3.5740e+03 1.6892e+04 1.2040e+03
 5.3310e+03 1.4184e+04 5.3430e+03 1.1550e+03 1.1682e+04 1.1021e+04
 9.9550e+03 1.2690e+04 5.8150e+03 1.3237e+04 1.5595e+04 9.9990e+03
 1.1969e+04 1.1908e+04 1.5070e+04 1.0037e+04 1.7719e+04 7.6300e+03
 1.1469e+04 7.1130e+03 3.9450e+03 1.5853e+04 8.7640e+03 1.6630e+03
 6.3820e+03 3.1840e+03 4.4240e+03 7.4640e+03 2.9970e+03 6.1730e+03
 1.4813e+04 1.3621e+04 3.8340e+03 1.5929e+04 1.1715e+04 1.2480e+04
 1.5800e+03 4.7410e+03 1.4284e+04 7.6560e+03 7.1540e+03 2.6200e+03
 8.0900e+02 3.0100e+02 1.6836e+04 1.1643e+04 1.7406e+04 1.6012e+04
 1.3472e+04 8.5220e+03 4.0310e+03 1.0406e+04 1.8849e+04 1.6386e+04
 1.1860e+04 1.2141e+04 1.2230e+03 1.3659e+04 1.4964e+04 3.3330e+03
 1.4627e+04 1.8970e+03 1.2306e+04 7.8360e+03 1.9645e+04 1.5952e+04
 1.7637e+04 7.0090e+03 1.2862e+04 1.5428e+04 1.1190e+04 1.4678e+04
 1.5473e+04 1.8362e+04 1.1340e+03 2.2290e+03 1.9941e+04 1.7630e+04
 1.4698e+04 5.7000e+03 1.0800e+02 5.4770e+03 8.1870e+03 1.2436e+04
 3.9900e+03 2.5860e+03 1.2572e+04 6.9740e+03 8.6910e+03 1.6012e+04
 1.1675e+04 2.6620e+03 1.4480e+04 9.5460e+03 1.0739e+04 1.5952e+04
 2.2270e+03 8.7000e+01 1.5419e+04 1.0141e+04 1.5051e+04 1.5159e+04
 1.6481e+04 1.9452e+04 1.7504e+04 1.8834e+04 1.4070e+03 1.1880e+03
 9.6900e+02 7.8410e+03 1.9327e+04 2.5790e+03 2.6610e+03 1.2922e+04
 6.4500e+03 3.3840e+03 7.3470e+03 1.5684e+04 8.9830e+03 1.3363e+04
 1.9002e+04 6.3280e+03 1.6622e+04 1.5540e+03 6.0760e+03 1.3943e+04
 1.6814e+04 6.9080e+03 3.7800e+03 1.9580e+04 8.8280e+03 1.2373e+04
 8.0000e+00 1.7236e+04 8.1170e+03 1.8772e+04 1.4121e+04 3.5990e+03
 1.3543e+04 1.5995e+04 1.6887e+04 1.1271e+04 1.0605e+04 1.1846e+04
 5.1600e+02 7.0700e+03 9.9190e+03 5.5350e+03 1.2296e+04 9.5060e+03
 4.9110e+03 1.7024e+04 5.0720e+03 1.8906e+04 1.0218e+04 1.4607e+04
 1.9337e+04 2.4830e+03 1.5728e+04 1.4980e+04 1.6220e+03 3.1070e+03
 7.1050e+03 1.4311e+04 5.7980e+03 4.0000e+00 8.3510e+03 6.6450e+03
 1.3785e+04 7.8620e+03 6.2300e+02 1.7658e+04 8.8280e+03 1.8450e+03
 1.9269e+04 1.0273e+04 7.7200e+03 7.1800e+03 5.5380e+03 1.1041e+04
 1.6623e+04 1.7504e+04 1.9943e+04 1.3142e+04 2.4870e+03 1.0393e+04
 9.9740e+03 1.5159e+04 4.0000e+00 1.2058e+04 7.8190e+03 1.2575e+04
 8.9340e+03 4.7230e+03 6.3490e+03 1.2658e+04 1.0322e+04 9.8250e+03
 8.8940e+03 3.8750e+03 1.1180e+04 8.1350e+03 1.0738e+04 1.5450e+04
 7.1090e+03 1.1367e+04 1.9614e+04 1.5206e+04 1.4954e+04 1.5289e+04
 5.3780e+03 1.0516e+04 1.1474e+04 6.7320e+03 4.2700e+03 1.3205e+04
 7.0410e+03 4.4490e+03 1.2755e+04 7.6870e+03 1.2067e+04 1.6289e+04
 1.1107e+04 2.9820e+03 1.6489e+04 1.8871e+04 3.3300e+03 6.5680e+03
 6.5300e+02 1.0571e+04 1.8154e+04 1.6571e+04 4.7280e+03 4.1770e+03
 1.5469e+04 3.3700e+03 1.4704e+04 3.8670e+03 5.8500e+02 5.5820e+03
 1.3220e+04 1.4948e+04 6.3740e+03 3.5010e+03 1.8241e+04 1.5318e+04
 1.3111e+04 1.8036e+04 1.5651e+04 7.3810e+03 1.6026e+04 1.1466e+04
 6.4310e+03 1.5380e+04 1.9340e+03 7.9750e+03 1.1600e+04 6.1610e+03
 3.5870e+03 1.2040e+03 1.9099e+04 3.1070e+03 8.2620e+03 4.7720e+03
 8.5110e+03 2.8650e+03 9.5040e+03 8.9000e+03 5.9750e+03 9.8250e+03
 1.6486e+04 7.6300e+03 1.3163e+04 1.8963e+04 1.4767e+04 1.0598e+04
 9.5830e+03 4.3050e+03 1.8534e+04 1.4359e+04 1.0010e+03 1.2192e+04
 7.4440e+03 9.3230e+03 1.6102e+04 4.2050e+03 1.7008e+04 6.4900e+03
 5.6000e+01 6.8880e+03 1.8800e+04 1.2785e+04 1.5635e+04 8.2370e+03
 1.2073e+04 6.3730e+03 1.9010e+04 6.1500e+02 1.9950e+04 8.1760e+03
 1.1021e+04 9.2980e+03 1.1787e+04 1.5578e+04 7.2000e+03 9.5670e+03
 5.8800e+02 3.8730e+03 2.9720e+03 7.0960e+03 1.4486e+04 2.7010e+03
 1.2488e+04 1.4518e+04 1.7310e+03 1.4302e+04 1.4014e+04 2.8710e+03
 7.4200e+03 3.1410e+03 1.3261e+04 1.6500e+02 1.8849e+04 1.3880e+04
 1.1600e+04 6.8750e+03 6.8860e+03 1.9638e+04 9.9190e+03 8.9450e+03
 1.9247e+04 2.2720e+03 3.6790e+03 5.3000e+03 5.0300e+02 1.9563e+04
 4.1590e+03 4.4310e+03 3.8230e+03 1.7468e+04 9.9370e+03 1.9171e+04
 5.0630e+03 2.4500e+02 4.2940e+03 1.0386e+04 1.7861e+04 7.0640e+03
 1.0537e+04 1.2455e+04 3.0500e+02 4.0580e+03 3.2550e+03 1.3314e+04
 1.1413e+04 1.3538e+04 1.6385e+04 1.4728e+04 1.0813e+04 9.5210e+03
 1.4450e+04 1.6793e+04 4.3900e+02 6.8690e+03 8.8340e+03 1.6762e+04
 1.7108e+04 1.4498e+04 4.7270e+03 6.4200e+02 1.3138e+04 1.0464e+04
 1.2952e+04 1.8206e+04 6.0510e+03 1.4518e+04 1.6112e+04 1.3896e+04
 5.7640e+03 1.0790e+03 3.8640e+03 4.0580e+03 1.7282e+04 2.3080e+03
 1.3968e+04 1.5715e+04 3.8640e+03 1.0088e+04 1.9874e+04 1.0820e+04
 4.7030e+03 1.4528e+04 1.8157e+04 3.8660e+03 5.4510e+03 1.5678e+04
 1.2488e+04 3.8750e+03 1.8415e+04 1.7719e+04 3.1100e+03 4.0710e+03
 7.9430e+03 9.0570e+03 1.4125e+04 1.2288e+04 1.9344e+04 1.4331e+04
 9.5980e+03 1.6063e+04 1.8158e+04 1.4235e+04 9.1520e+03 1.9214e+04
 1.6743e+04 1.2440e+03 4.1690e+03 1.6191e+04 2.3700e+03 6.6080e+03
 1.4040e+04 1.3377e+04 1.2070e+04 1.3228e+04 1.9314e+04 9.9290e+03
 1.8976e+04 9.9740e+03 3.2200e+02 2.8450e+03 1.6270e+03 3.0200e+02
 1.6799e+04 1.6379e+04 4.9670e+03 6.9740e+03 5.4740e+03 6.1810e+03
 1.8981e+04 1.5225e+04 6.7130e+03 1.2320e+04 1.6348e+04 1.9168e+04
 8.5000e+01 1.3537e+04 6.6670e+03 1.5594e+04 1.5900e+04 1.5359e+04
 1.9750e+03 1.6720e+03 6.8360e+03 1.8944e+04 1.6673e+04 6.3770e+03
 1.5692e+04 1.4836e+04 8.5650e+03 8.4690e+03 7.4460e+03 6.0780e+03
 1.5304e+04 3.4650e+03 1.5542e+04 1.3851e+04 8.9340e+03 9.6500e+03
 2.8350e+03 3.0490e+03 2.8700e+02 1.2597e+04 5.2300e+02 5.7640e+03]
Layer:  1   [3.3880e+03 1.4816e+04 8.4900e+03 1.3278e+04 2.7300e+02 1.9014e+04
 1.3053e+04 1.4550e+03 1.9279e+04 2.6610e+03 1.0020e+03 1.3379e+04
 1.1542e+04 1.1664e+04 1.7312e+04 3.4130e+03 3.2190e+03 1.6284e+04
 1.5627e+04 9.3740e+03 1.8811e+04 5.3410e+03 1.3281e+04 1.6340e+03
 1.6931e+04 1.8300e+02 1.1154e+04 1.3968e+04 4.7630e+03 5.8170e+03
 1.4924e+04 3.5760e+03 1.1312e+04 5.6010e+03 3.3730e+03 1.7534e+04
 1.2945e+04 1.3444e+04 1.5747e+04 1.0791e+04 9.8490e+03 1.2381e+04
 5.3700e+03 1.5565e+04 1.1401e+04 9.6970e+03 1.8139e+04 1.2907e+04
 8.4010e+03 1.9394e+04 1.8991e+04 1.3350e+03 1.8819e+04 1.9375e+04
 2.1890e+03 1.4932e+04 1.4324e+04 1.1346e+04 1.3413e+04 9.9460e+03
 4.2160e+03 1.4451e+04 1.5389e+04 1.8679e+04 1.0629e+04 1.6966e+04
 1.8615e+04 5.7900e+02 1.9878e+04 1.9412e+04 1.9570e+03 1.8030e+04
 1.8381e+04 4.2070e+03 1.7504e+04 1.8750e+03 4.1850e+03 6.3680e+03
 7.1490e+03 1.3379e+04 6.9900e+02 8.4900e+03 1.5617e+04 1.3600e+02
 5.3920e+03 9.8670e+03 7.5270e+03 7.5270e+03 1.8558e+04 1.3063e+04
 1.6947e+04 1.1401e+04 9.7720e+03 4.0760e+03 1.8774e+04 1.6570e+03
 1.4964e+04 6.3110e+03 1.7676e+04 1.6041e+04 3.6410e+03 7.7500e+03
 8.4770e+03 6.8430e+03 1.3379e+04 1.5661e+04 1.2547e+04 1.4518e+04
 1.3383e+04 1.5130e+04 5.0000e+00 9.7720e+03 1.8317e+04 1.6727e+04
 3.1810e+03 2.4600e+03 1.2680e+04 1.6288e+04 6.2010e+03 4.0320e+03
 1.4997e+04 1.7760e+03 8.5450e+03 1.1529e+04 1.7952e+04 6.1060e+03
 7.4650e+03 1.3444e+04 1.8844e+04 2.4500e+02 3.2370e+03 1.8411e+04
 1.7065e+04 1.6284e+04 6.0510e+03 9.5860e+03 1.7610e+03 2.7880e+03
 1.8506e+04 1.5060e+03 1.5662e+04 2.7430e+03 9.3420e+03 6.8600e+02
 1.1542e+04 1.4560e+04 4.4820e+03 1.5884e+04 1.8292e+04 1.5308e+04
 4.5590e+03 1.3408e+04 1.1685e+04 1.9608e+04 9.7000e+03 1.9408e+04
 5.8880e+03 1.3027e+04 2.5620e+03 8.7000e+03 2.7140e+03 1.7568e+04
 3.3400e+02 1.5011e+04 4.5540e+03 2.7580e+03 1.3444e+04 2.2440e+03
 6.0760e+03 1.2907e+04 2.5320e+03 1.3302e+04 5.7990e+03 1.0629e+04
 1.6821e+04 3.5990e+03 1.3854e+04 5.3280e+03 1.9668e+04 7.6500e+03
 1.1813e+04 1.9731e+04 1.3314e+04 1.6998e+04 1.6284e+04 1.4952e+04
 1.6159e+04 9.8670e+03 3.8010e+03 8.3000e+02 9.2210e+03 1.0820e+04
 3.1370e+03 4.0000e+01 1.6740e+04 1.0957e+04 1.8945e+04 3.1050e+03
 1.6371e+04 1.6767e+04 7.4900e+03 3.0930e+03 1.4687e+04 3.1800e+02
 1.3857e+04 3.4900e+03 2.7430e+03 1.3651e+04 1.5666e+04 1.4916e+04
 1.4346e+04 1.7488e+04 8.1770e+03 1.6371e+04 7.4800e+02 1.2945e+04
 1.2335e+04 1.5661e+04 1.7544e+04 1.8679e+04 1.3350e+03 1.7641e+04
 4.0690e+03 1.0230e+03 1.3600e+02 7.8040e+03 1.8224e+04 2.9380e+03
 1.2570e+03 9.0620e+03 1.4924e+04 1.3379e+04 5.5150e+03 1.8435e+04
 1.8030e+04 1.3444e+04 1.0334e+04 1.0167e+04 1.2680e+04 1.2920e+04
 3.6900e+02 1.8136e+04 3.9400e+02 1.8991e+04 4.6150e+03 3.5760e+03
 1.5677e+04 1.3749e+04 6.1900e+02 1.8936e+04 1.9412e+04 1.2182e+04
 2.9360e+03 1.1570e+04 1.5561e+04 6.2980e+03 1.1682e+04 1.8465e+04
 4.2500e+03 1.3038e+04 1.7488e+04 9.2240e+03 1.2859e+04 1.9596e+04
 2.7140e+03 9.1230e+03 1.5291e+04 7.7500e+03 9.3900e+03 6.7720e+03
 6.5780e+03 1.7256e+04 1.4715e+04 1.3379e+04 1.9854e+04 1.8774e+04
 1.9768e+04 1.5389e+04 1.6180e+04 1.3455e+04 9.9520e+03 1.1702e+04
 1.7110e+03 7.3260e+03 5.8720e+03 9.3640e+03 1.8043e+04 1.6900e+02
 1.7287e+04 1.9180e+03 1.8774e+04 1.6288e+04 1.0600e+02 5.2800e+02
 4.0860e+03 5.3660e+03 1.5374e+04 1.3413e+04 6.5000e+02 4.4960e+03
 3.8230e+03 1.1339e+04 2.6230e+03 1.1510e+04 9.0970e+03 7.3260e+03
 1.2265e+04 9.3920e+03 9.0090e+03 1.3063e+04 3.0610e+03 1.0854e+04
 4.1850e+03 1.6412e+04 1.2358e+04 1.9650e+04 1.3205e+04 1.9596e+04
 1.0990e+04 1.4035e+04 1.7700e+04 1.8317e+04 1.1016e+04 5.8630e+03
 7.5270e+03 2.7430e+03 1.1070e+03 9.9300e+03 2.9360e+03 1.1302e+04
 1.7701e+04 2.2900e+02 3.4970e+03 1.9730e+04 4.6000e+03 3.3480e+03
 4.2070e+03 6.3110e+03 1.8950e+03 1.5884e+04 1.3995e+04 1.8774e+04
 2.7990e+03 9.0970e+03 5.2800e+02 9.3870e+03 1.3479e+04 1.4510e+04
 1.5985e+04 1.3089e+04 9.8670e+03 1.5736e+04 4.7060e+03 1.3531e+04
 1.7798e+04 8.1170e+03 3.4570e+03 7.3900e+02 4.0690e+03 1.5487e+04
 7.5270e+03 1.1160e+03 5.7000e+03 4.8190e+03 7.2800e+03 1.3968e+04
 1.1642e+04 1.9010e+04 1.6288e+04 1.6371e+04 3.2990e+03 1.5011e+04
 1.8788e+04 1.3854e+04 8.3700e+02 3.2090e+03 1.1890e+04 4.4190e+03
 1.1689e+04 1.9627e+04 1.2945e+04 1.7219e+04 1.8900e+03 5.8600e+03
 6.3110e+03 7.9670e+03 1.2710e+03 1.7701e+04 7.5270e+03 1.0588e+04
 1.7110e+03 4.6600e+03 1.6284e+04 1.9596e+04 4.9020e+03 2.2850e+03
 1.3153e+04 3.4800e+02 6.0050e+03 1.5865e+04 6.8010e+03 9.7200e+03
 9.4680e+03 9.2000e+02 9.7290e+03 2.4000e+03 4.6400e+03 9.6590e+03
 1.4326e+04 1.4674e+04 2.7900e+02 1.4160e+03 1.3676e+04 4.3120e+03
 8.1560e+03 1.4590e+04 1.4445e+04 4.6840e+03 1.6924e+04 1.0196e+04
 1.8811e+04 1.1862e+04 1.8400e+02 1.3408e+04 1.3831e+04 3.0070e+03
 4.4350e+03 4.6150e+03 2.8100e+03 1.6942e+04 9.0090e+03 1.3968e+04
 1.0836e+04 4.5020e+03 5.4070e+03 1.3261e+04 1.6284e+04 1.7980e+04
 1.7886e+04 1.5368e+04 1.1675e+04 9.7390e+03 1.3744e+04 1.6118e+04
 1.3843e+04 1.3383e+04 2.7170e+03 1.4334e+04 1.9645e+04 2.7910e+03
 8.3970e+03 3.5760e+03 1.9596e+04 1.3350e+03 5.0080e+03 8.8470e+03
 1.0393e+04 9.6900e+02 1.5146e+04 5.6700e+03 3.2900e+02 9.4310e+03
 1.3837e+04 2.6610e+03 1.3600e+02 1.4924e+04 1.7370e+03 5.0170e+03
 4.5260e+03 3.9750e+03 1.9438e+04 8.5440e+03 1.1180e+03 5.8600e+03
 6.5230e+03 1.4518e+04 4.5540e+03 1.4670e+04 1.2255e+04 1.1683e+04
 4.6240e+03 7.3730e+03 1.5755e+04 4.0160e+03 2.2330e+03 2.5830e+03
 1.3437e+04 1.4058e+04 1.8184e+04 1.3624e+04 6.4350e+03 1.9006e+04
 3.8660e+03 1.9365e+04 1.7210e+04 1.1542e+04 3.2000e+03 1.3530e+04
 1.1900e+02 4.2100e+03 1.3063e+04 1.3677e+04 3.3320e+03 9.7580e+03
 1.5374e+04 8.8530e+03 4.0390e+03 1.0563e+04 9.7060e+03 2.3710e+03
 6.9230e+03 1.9114e+04 1.3152e+04 1.2273e+04 1.2440e+03 1.6329e+04
 2.6170e+03 2.3700e+03 2.9250e+03 6.3730e+03 5.5150e+03 1.3744e+04
 1.4300e+03 9.7720e+03 1.4810e+03 1.7655e+04 8.9830e+03 1.2980e+04
 5.2800e+02 1.3581e+04 4.9390e+03 1.8303e+04 8.3330e+03 7.2800e+03
 1.7676e+04 6.5680e+03 1.1723e+04 1.7945e+04 1.6070e+03 2.3870e+03
 1.4507e+04 1.3968e+04 1.6236e+04 1.2210e+04 9.8670e+03 9.6930e+03
 2.7750e+03 8.7210e+03 5.1620e+03 1.4071e+04 1.3854e+04 7.3480e+03
 8.4690e+03 1.4320e+03 3.3300e+02 4.1770e+03 5.7760e+03 6.9670e+03
 1.3444e+04 1.3883e+04 1.8400e+04 1.3063e+04 1.1780e+04 1.1576e+04
 5.3750e+03 6.3880e+03 1.2456e+04 1.1685e+04 1.8590e+04 1.2802e+04
 1.7109e+04 2.5830e+03 1.0660e+04]
Layer:  2   [6.1050e+03 8.9060e+03 1.3863e+04 1.0018e+04 1.8703e+04 3.2250e+03
 4.8890e+03 1.6998e+04 1.4284e+04 2.0900e+03 9.0150e+03 3.6310e+03
 5.8090e+03 1.6093e+04 1.4530e+03 2.9820e+03 1.7480e+04 7.2900e+03
 1.1948e+04 2.0330e+03 4.9340e+03 2.1060e+03 3.2300e+02 1.3835e+04
 1.9282e+04 1.6259e+04 5.5330e+03 1.6093e+04 1.9247e+04 1.5408e+04
 8.3970e+03 1.8300e+02 1.3848e+04 9.5430e+03 4.1530e+03 6.3940e+03
 2.9800e+03 2.0900e+03 1.0018e+04 8.2820e+03 1.2706e+04 1.6093e+04
 8.5220e+03 7.9740e+03 1.1770e+03 1.6095e+04 6.6800e+03 4.8840e+03
 6.3520e+03 9.0320e+03 9.0850e+03 9.1050e+03 1.2859e+04 6.5700e+02
 6.4230e+03 1.3667e+04 2.9800e+03 4.9110e+03 4.7230e+03 9.5430e+03
 4.8700e+03 9.5430e+03 2.0330e+03 7.3390e+03 1.6756e+04 5.6130e+03
 1.8615e+04 1.5013e+04 3.1740e+03 1.1940e+03 4.0960e+03 1.2440e+04
 1.0914e+04 1.2417e+04 4.8000e+02 6.3520e+03 4.6850e+03 8.1990e+03
 3.8350e+03 1.5290e+03 7.4810e+03 8.2230e+03 9.3720e+03 5.4740e+03
 1.8988e+04 1.9438e+04 1.2032e+04 7.4650e+03 1.0869e+04 1.1068e+04
 6.3680e+03 1.8362e+04 1.0135e+04 1.8539e+04 8.9000e+03 1.0833e+04
 5.5330e+03 5.5330e+03 1.4179e+04 6.8800e+02 1.6093e+04 5.6150e+03
 5.6700e+03 1.1295e+04 5.9830e+03 2.0900e+03 5.3310e+03 1.6093e+04
 1.1966e+04 1.8353e+04 1.9795e+04 1.1786e+04 1.6507e+04 1.0784e+04
 2.9800e+03 1.1770e+03 2.9380e+03 1.7898e+04 1.6093e+04 1.4716e+04
 5.5330e+03 7.2900e+02 1.9481e+04 1.9610e+03 1.0869e+04 2.9930e+03
 1.3910e+04 8.3970e+03 1.6628e+04 1.1450e+04 3.2370e+03 1.7290e+03
 9.4800e+02 1.2291e+04 1.3468e+04 8.9810e+03 1.4223e+04 1.2942e+04
 6.7300e+03 5.0000e+00 2.2120e+03 1.2648e+04 1.0310e+03 2.1430e+03
 1.0272e+04 9.5430e+03 1.1610e+04 5.1460e+03 1.0433e+04 1.9609e+04
 6.7300e+03 4.0500e+02 9.5430e+03 6.7850e+03 6.5110e+03 1.8598e+04
 1.2648e+04 1.0291e+04 9.5430e+03 6.9070e+03 4.8510e+03 5.0970e+03
 1.6093e+04 1.2789e+04 1.4687e+04 1.8560e+03 3.7380e+03 4.2110e+03
 1.3530e+04 1.6187e+04 1.3082e+04 1.1529e+04 2.9860e+03 1.4782e+04
 5.1660e+03 1.8074e+04 7.5270e+03 2.9800e+03 6.9110e+03 1.7909e+04
 9.1760e+03 9.7640e+03 4.9390e+03 1.8562e+04 3.7710e+03 5.0590e+03
 2.5860e+03 5.0590e+03 5.3030e+03 1.6916e+04 1.0869e+04 1.8252e+04
 1.4782e+04 1.6093e+04 1.3205e+04 1.8016e+04 1.9449e+04 5.8840e+03
 9.5430e+03 1.8598e+04 1.0869e+04 1.0869e+04 9.5950e+03 1.5587e+04
 5.5330e+03 1.7256e+04 1.8362e+04 9.0910e+03 1.2337e+04 1.5280e+04
 8.2190e+03 9.3090e+03 8.1770e+03 5.5330e+03 3.9110e+03 1.2585e+04
 1.6093e+04 1.5760e+04 1.7290e+03 4.4180e+03 4.4180e+03 1.5020e+03
 6.8690e+03 1.5507e+04 2.9800e+03 5.6140e+03 8.7780e+03 1.8353e+04
 1.7008e+04 3.3000e+02 1.2371e+04 3.7710e+03 9.1630e+03 7.1360e+03
 4.2090e+03 2.9800e+03 8.3970e+03 1.3202e+04 3.9620e+03 1.4716e+04
 9.1750e+03 1.4444e+04 1.7273e+04 8.9600e+03 4.8510e+03 1.9438e+04
 1.1189e+04 3.7710e+03 2.3990e+03 1.9487e+04 1.0796e+04 1.7320e+04
 1.3299e+04 1.6884e+04 2.1910e+03 9.9500e+03 9.9860e+03 9.9500e+03
 2.2100e+03 5.1880e+03 9.1050e+03 2.1910e+03 8.2190e+03 1.0856e+04
 1.0457e+04 5.5330e+03 3.7710e+03 5.3310e+03 9.3720e+03 3.2250e+03
 1.7070e+04 8.1920e+03 1.6778e+04 2.5740e+03 1.5290e+03 1.3018e+04
 8.0190e+03 1.6093e+04 1.8074e+04 1.1293e+04 1.4180e+03 1.5667e+04
 4.6290e+03 7.6320e+03 1.1712e+04 3.7990e+03 1.4284e+04 8.8280e+03
 1.1189e+04 5.7040e+03 8.1990e+03 1.5760e+04 8.3750e+03 1.4222e+04
 3.7710e+03 1.7320e+04 1.6259e+04 1.7701e+04 2.3950e+03 4.8700e+03
 1.7907e+04 9.9200e+03 1.0435e+04 1.5184e+04 3.3170e+03 1.2031e+04
 1.5701e+04 4.9320e+03 6.0050e+03 1.5450e+04 1.9806e+04 4.3840e+03
 1.5790e+04 4.6850e+03 1.8470e+04 8.3320e+03 4.1280e+03 6.2680e+03
 9.0620e+03 9.1390e+03 6.7760e+03 1.6152e+04 3.8050e+03 1.8812e+04
 8.3970e+03 1.9340e+04 1.6264e+04 5.3360e+03 1.1119e+04 9.6070e+03
 9.7130e+03 4.2700e+03 9.4800e+02 7.3810e+03 4.7280e+03 2.0900e+03
 1.5760e+04 1.4782e+04 5.8020e+03 1.4716e+04 5.5330e+03 1.3863e+04
 1.2270e+04 1.5379e+04 6.7110e+03 8.0700e+03 1.6574e+04 1.4570e+04
 1.5580e+04 1.4180e+03 4.2490e+03 5.3560e+03 1.8909e+04 4.3000e+01
 7.3600e+02 3.7500e+02 5.5330e+03 2.5860e+03 8.3970e+03 1.2564e+04
 1.0986e+04 1.8988e+04 1.9371e+04 1.6553e+04 2.1200e+02 5.0590e+03
 1.6093e+04 1.9003e+04 7.1640e+03 1.3940e+03 1.6884e+04 1.1783e+04
 8.0700e+03 1.5725e+04 4.4310e+03 2.1200e+02 5.6140e+03 2.5600e+02
 4.8510e+03 2.1200e+02 1.3545e+04 5.5330e+03 1.6779e+04 2.0060e+03
 4.7280e+03 6.8490e+03 6.7000e+03 1.5223e+04 1.2849e+04 3.9480e+03
 1.6093e+04 5.5330e+03 1.8074e+04 7.6430e+03 4.7280e+03 4.2440e+03
 6.1910e+03 1.1664e+04 1.3312e+04 9.4050e+03 2.1910e+03 9.8130e+03
 1.9438e+04 1.1526e+04 1.1261e+04 1.5725e+04 3.7710e+03 5.3470e+03
 1.7312e+04 1.1996e+04 1.6093e+04 1.4674e+04 1.5049e+04 1.8460e+04
 1.6529e+04 6.8560e+03 2.2000e+01 1.5621e+04 1.0869e+04 1.9732e+04
 1.7273e+04 9.0320e+03 1.6623e+04 4.8270e+03 1.2688e+04 1.8831e+04
 1.0869e+04 1.2575e+04 9.8340e+03 6.8490e+03 1.1293e+04 1.6001e+04
 5.1110e+03 9.2370e+03 4.3370e+03 1.6441e+04 4.7230e+03 1.3783e+04
 5.9830e+03 3.3970e+03 4.7280e+03 4.4180e+03 3.5570e+03 1.9340e+04
 1.5158e+04 1.8228e+04 5.5330e+03 1.7312e+04 1.4782e+04 1.5827e+04
 5.7640e+03 1.5158e+04 9.5430e+03 1.3783e+04 1.6528e+04 9.8130e+03
 1.6259e+04 1.9450e+04 8.9810e+03 6.7530e+03 9.8130e+03 8.3180e+03
 1.7533e+04 1.4782e+04 3.9480e+03 7.4930e+03 1.4782e+04 1.8515e+04
 1.0359e+04 2.0940e+03 5.1580e+03 1.0029e+04 5.8020e+03 1.4222e+04
 1.5408e+04 1.5158e+04 1.1519e+04 5.3560e+03 1.0786e+04 8.2710e+03
 9.5430e+03 8.4900e+02 1.3783e+04 1.4222e+04 1.3150e+03 9.1640e+03
 1.3172e+04 1.1770e+03 1.4002e+04 1.7195e+04 1.9100e+02 1.8515e+04
 1.4818e+04 1.7111e+04 5.5330e+03 1.7312e+04 1.0322e+04 4.1530e+03
 1.1328e+04 1.5309e+04 1.5590e+03 1.2032e+04 5.5330e+03 1.6997e+04
 1.4227e+04 1.4345e+04 9.2860e+03 5.6130e+03 5.0600e+03 5.4940e+03
 1.1944e+04 1.3383e+04 1.6884e+04 3.9110e+03 9.1410e+03 8.4070e+03
 3.1350e+03 8.7900e+02 3.8030e+03 5.2170e+03 8.3970e+03 1.5672e+04
 1.6093e+04 1.6194e+04 3.7480e+03 1.2522e+04 1.4398e+04 1.3970e+03
 5.2030e+03 5.5330e+03 1.0833e+04 1.6297e+04 1.4690e+04 1.7312e+04
 5.1860e+03 1.3951e+04 3.2250e+03 7.3810e+03 1.2417e+04 5.6330e+03
 1.5321e+04 1.5910e+03 1.8079e+04 2.9800e+03 1.2479e+04 1.6914e+04
 8.3750e+03 1.0833e+04 9.4050e+03 1.2413e+04 4.2510e+03 6.7100e+03
 3.1060e+03 7.3990e+03 1.0330e+03 1.4222e+04 1.2731e+04 8.0330e+03
 1.6259e+04 4.5640e+03 1.0157e+04 1.4706e+04 1.1894e+04 1.1770e+03
 1.5725e+04 4.2700e+03 4.1530e+03 1.6884e+04 3.2910e+03 1.4292e+04
 1.9438e+04 1.6259e+04 2.1060e+03 8.2700e+02 2.8370e+03 9.0850e+03]
Layer:  3   [3.1720e+03 1.6505e+04 8.1610e+03 1.3518e+04 1.7301e+04 1.4222e+04
 9.0150e+03 1.1729e+04 7.3900e+03 1.3680e+03 1.2115e+04 4.9340e+03
 1.5396e+04 3.2300e+02 1.2328e+04 1.1702e+04 1.6884e+04 5.7700e+03
 1.0725e+04 5.9910e+03 1.7475e+04 1.8831e+04 3.5730e+03 1.4690e+04
 1.2364e+04 5.1550e+03 1.4454e+04 1.3136e+04 1.0461e+04 1.6628e+04
 7.9010e+03 3.9520e+03 4.9110e+03 1.5532e+04 1.3997e+04 1.0120e+04
 1.2936e+04 2.4760e+03 3.1740e+03 1.0109e+04 1.5431e+04 1.9262e+04
 1.0582e+04 4.8000e+02 1.0117e+04 1.0351e+04 1.4454e+04 6.7840e+03
 8.1400e+03 5.6430e+03 4.0960e+03 1.8362e+04 1.0491e+04 1.6884e+04
 8.6640e+03 1.0348e+04 3.3970e+03 1.8819e+04 6.1090e+03 9.3180e+03
 2.7440e+03 1.7760e+03 1.6546e+04 1.6502e+04 1.8906e+04 6.8440e+03
 1.5436e+04 1.7865e+04 1.7355e+04 1.0433e+04 8.4300e+02 1.6896e+04
 1.2370e+03 5.1580e+03 3.3170e+03 6.8490e+03 1.8339e+04 1.1089e+04
 7.7410e+03 7.9940e+03 4.2110e+03 1.3489e+04 1.3472e+04 1.8831e+04
 1.6084e+04 7.8250e+03 8.8400e+02 4.0070e+03 3.3770e+03 4.6170e+03
 6.3190e+03 3.3970e+03 1.0869e+04 8.9700e+03 8.2660e+03 1.9059e+04
 1.0958e+04 4.9700e+02 3.7500e+02 3.0200e+03 1.1510e+03 1.2144e+04
 4.2120e+03 5.6500e+02 1.1558e+04 2.3710e+03 1.8175e+04 1.3104e+04
 2.5830e+03 1.2116e+04 1.3393e+04 1.8252e+04 1.8649e+04 4.7400e+03
 1.0009e+04 6.3850e+03 9.1750e+03 1.7628e+04 7.4930e+03 1.2115e+04
 4.4330e+03 3.8390e+03 8.9000e+03 1.3562e+04 1.0457e+04 1.9447e+04
 1.9546e+04 1.4581e+04 1.2657e+04 5.1600e+02 6.8440e+03 9.3090e+03
 3.4040e+03 3.2850e+03 1.3268e+04 1.6310e+03 7.5150e+03 1.1853e+04
 1.1293e+04 1.4081e+04 1.3777e+04 1.7948e+04 9.1640e+03 1.3939e+04
 1.3783e+04 1.2115e+04 6.8490e+03 8.3540e+03 2.1070e+03 1.7307e+04
 8.6510e+03 1.5194e+04 1.2942e+04 1.7804e+04 1.1492e+04 1.1960e+04
 1.0168e+04 9.1790e+03 5.6900e+02 4.7230e+03 5.0760e+03 7.9620e+03
 3.8050e+03 1.8812e+04 1.6320e+04 6.1670e+03 1.8620e+03 9.6070e+03
 1.3140e+04 1.1082e+04 4.1530e+03 1.4956e+04 3.7710e+03 8.5100e+02
 1.5507e+04 1.6470e+04 1.6198e+04 5.1930e+03 8.0770e+03 2.3410e+03
 4.9400e+02 1.5041e+04 1.5412e+04 1.0488e+04 1.1000e+01 6.1670e+03
 3.9280e+03 1.5960e+04 6.3480e+03 1.2085e+04 9.1000e+01 2.1200e+02
 1.2115e+04 4.6480e+03 1.5286e+04 1.7081e+04 1.6884e+04 2.9270e+03
 1.3257e+04 1.6441e+04 1.0317e+04 5.3320e+03 3.6980e+03 1.2521e+04
 1.4437e+04 9.6070e+03 5.6140e+03 3.7990e+03 1.5049e+04 3.8080e+03
 4.0660e+03 1.9570e+03 1.5125e+04 1.4716e+04 4.8000e+01 1.8831e+04
 1.7106e+04 9.6070e+03 1.7163e+04 1.0493e+04 1.4951e+04 2.2360e+03
 4.9320e+03 1.6101e+04 1.8228e+04 5.3560e+03 1.4222e+04 6.8490e+03
 1.6464e+04 5.3280e+03 1.1975e+04 1.7952e+04 7.2860e+03 1.6320e+04
 1.5363e+04 1.8906e+04 1.0930e+04 1.1754e+04 7.2080e+03 1.6091e+04
 1.0869e+04 9.9770e+03 2.8950e+03 1.5470e+03 5.4160e+03 1.0860e+04
 1.9345e+04 1.9641e+04 8.1380e+03 9.5780e+03 1.5393e+04 8.9000e+03
 4.9700e+02 9.3100e+02 1.0029e+04 3.4940e+03 1.2820e+03 9.8950e+03
 1.4327e+04 1.2140e+04 6.1000e+02 1.9968e+04 1.0273e+04 5.6330e+03
 5.7680e+03 2.7170e+03 1.9114e+04 1.3010e+04 6.7100e+03 6.3280e+03
 1.0813e+04 1.5436e+04 1.8024e+04 3.9480e+03 1.5003e+04 6.4860e+03
 2.0940e+03 1.8510e+03 8.9420e+03 1.9775e+04 1.8441e+04 9.9460e+03]
Layer:  4   [1.6851e+04 4.8930e+03 1.2834e+04 1.8356e+04 3.2250e+03 1.4847e+04
 1.5751e+04 1.6000e+02 3.6310e+03 7.2200e+02 1.8379e+04 9.2480e+03
 7.4120e+03 1.7207e+04 1.3572e+04 1.4016e+04 1.1149e+04 9.3900e+03
 1.2705e+04 1.9500e+04 1.6386e+04 1.8090e+03 1.2058e+04 1.9603e+04
 1.7650e+04 8.2820e+03 1.4454e+04 1.2217e+04 1.0094e+04 1.0786e+04
 5.1660e+03 1.8883e+04 1.1154e+04 1.1249e+04 1.9592e+04 4.3490e+03
 1.1082e+04 1.6756e+04 1.2217e+04 1.2595e+04 1.5751e+04 1.5098e+04
 1.6749e+04 1.0582e+04 4.5230e+03 3.5900e+02 1.8908e+04 9.8580e+03
 1.5293e+04 1.6584e+04 1.0780e+03 4.9320e+03 1.8490e+04 1.6756e+04
 6.4860e+03 3.0200e+03 1.2209e+04 3.5900e+03 1.0526e+04 1.6884e+04
 1.3283e+04 5.2310e+03 5.5250e+03 9.5980e+03 1.3383e+04 3.9790e+03
 6.8790e+03 1.8066e+04 1.1823e+04 4.4820e+03 1.1282e+04 4.2940e+03
 3.4030e+03 8.1920e+03 9.2960e+03 5.3280e+03 4.8110e+03 1.4990e+03
 1.4237e+04 7.6100e+02 4.3490e+03 1.7638e+04 2.3770e+03 7.0810e+03
 3.9020e+03 1.9888e+04 8.6720e+03 8.1900e+02 4.9540e+03 8.2320e+03
 1.7889e+04 4.5590e+03 4.4460e+03 7.4130e+03 5.1580e+03 1.8769e+04
 1.0694e+04 1.9912e+04 1.2058e+04 1.8970e+04 7.6150e+03 1.6014e+04
 1.9092e+04 1.6386e+04 1.3724e+04 1.4796e+04 7.1090e+03 5.4750e+03
 1.1545e+04 1.3202e+04 2.7140e+03 1.0157e+04 4.1470e+03 1.1375e+04
 2.4700e+02 1.1981e+04 3.1840e+03 8.3970e+03 1.9411e+04 8.9420e+03
 7.1590e+03 4.6140e+03 1.3391e+04 1.2270e+04 1.2210e+04 5.3280e+03
 3.6610e+03 6.8880e+03 6.8580e+03 1.3202e+04 1.1948e+04 1.2337e+04
 1.2563e+04 1.6259e+04 7.2680e+03 1.9757e+04 4.3160e+03 2.3700e+03
 5.7700e+03 1.3220e+04 1.0074e+04 1.5583e+04 1.3008e+04 5.3020e+03
 1.2209e+04 9.5220e+03 1.8991e+04 3.2910e+03 1.7195e+04 1.9002e+04
 1.3043e+04 1.0397e+04 1.3911e+04 1.3035e+04 1.0162e+04 6.7840e+03
 1.0674e+04 5.5670e+03 1.8017e+04 6.4070e+03 3.2170e+03 1.8803e+04
 9.6980e+03 9.4800e+02 1.3562e+04 1.9601e+04 1.8805e+04 4.7280e+03
 1.4581e+04 5.1930e+03 7.9200e+03 1.1570e+04 2.4600e+02 1.5380e+03
 1.8882e+04 1.9071e+04 1.5290e+03 1.7777e+04 5.6110e+03 8.5000e+03
 1.9870e+03 2.1480e+03 5.3320e+03 3.1840e+03 6.6110e+03 9.7200e+03
 1.8740e+04 1.1270e+04 1.3156e+04 1.8218e+04 1.0272e+04 1.2357e+04
 4.5790e+03 4.7470e+03 9.3360e+03 1.5380e+03 7.5280e+03 1.0168e+04
 3.0350e+03 3.3770e+03 1.9280e+04 1.5900e+03 2.6310e+03 6.8780e+03
 1.4035e+04 1.1162e+04 3.0380e+03 6.4880e+03 9.8130e+03 3.2580e+03
 1.9966e+04 9.0860e+03 1.5556e+04 1.4254e+04 7.2900e+03 2.1790e+03
 1.0115e+04 4.1260e+03 1.0550e+04 3.2000e+01 1.2607e+04 5.3080e+03
 1.6038e+04 1.1768e+04 1.6571e+04 9.2520e+03 1.3283e+04 1.9270e+04
 1.0992e+04 1.0760e+03 9.6980e+03 3.5900e+03 3.1830e+03 1.2028e+04
 1.8918e+04 5.3660e+03 4.0900e+03 1.8902e+04 8.3700e+02 9.1630e+03
 9.0000e+00 8.6780e+03 9.8130e+03 6.7060e+03 5.1600e+02 1.7306e+04
 4.7740e+03 1.1443e+04 1.1103e+04 8.4070e+03 1.1068e+04 1.4435e+04
 1.5751e+04 1.1216e+04 1.5838e+04 1.1150e+03 1.0195e+04 1.0674e+04
 1.5125e+04 1.9675e+04 1.8058e+04 1.4222e+04 1.9286e+04 1.2472e+04
 1.2880e+03 1.0464e+04 2.3000e+02 9.6070e+03 1.1185e+04 7.3720e+03
 1.4631e+04 1.8547e+04 8.5490e+03 1.1270e+04 9.0290e+03 6.4720e+03
 1.4903e+04 9.5720e+03 1.0138e+04 2.4810e+03 8.3970e+03 8.6390e+03
 9.6130e+03 5.4250e+03 1.0813e+04 1.7380e+03 1.3261e+04 1.7245e+04
 1.5470e+03 2.9960e+03 1.5500e+03 1.4202e+04 1.5088e+04 7.1100e+03
 1.4222e+04 5.2140e+03 1.1916e+04 1.8883e+04 1.6571e+04 7.3030e+03
 1.6091e+04 1.4237e+04 1.4222e+04 1.7307e+04 2.8950e+03 1.4554e+04
 5.1010e+03 1.2982e+04 3.0350e+03 1.1400e+03 2.2330e+03 1.5540e+04
 1.5271e+04 1.8539e+04 1.8284e+04 1.7749e+04 1.5828e+04 1.4493e+04
 9.7390e+03 1.9092e+04 1.9285e+04 4.4070e+03 8.3970e+03 6.6710e+03
 1.3256e+04 1.2209e+04 3.5900e+03 1.9220e+03 1.4690e+04 1.9493e+04
 1.3404e+04 1.9615e+04 1.4280e+04 7.1100e+03 1.2597e+04 1.0171e+04
 1.8079e+04 1.9269e+04 1.1610e+04 1.5088e+04 7.9460e+03 5.5440e+03
 1.8194e+04 8.1130e+03 3.5190e+03 1.2390e+03 1.6628e+04 1.3779e+04
 1.9433e+04 5.3430e+03 1.6500e+02 1.2003e+04 1.6386e+04 9.4670e+03
 6.5250e+03]
Layer:  5   [15306. 18774.  1351. 17475.  4148. 13814. 12525. 13304.  6894.  8648.
  6079.  8635.    68.  7170. 19638.  5827.  9610. 12799.  2301.   417.
  2791. 10970.  1478.  7314.  5533. 13411.  7252.  2955. 12946.  4300.
   830.  5501.   857.    99. 14237.  3661. 10155. 12320. 17245.  9506.
  4839.  7154. 14346. 15027. 11742. 18458. 12266.  1127. 18218. 12286.
  7515.  6624.  8648.  3449. 16854.  1135. 14389. 16717. 17386. 13863.
  9974. 19756.  5158. 14186. 10358. 16348. 12217. 12920.  3553. 17306.
 12533.  7314. 13863.  8262.  6409.  4342. 18748. 16837.   931. 13075.
  5693. 17245.  6792.  6269. 15458.  4091. 16091.  5746.  8699. 13647.
 17858. 16717. 11676. 11896.  2179.  8433. 12187. 10788.  7941.   106.
 12655.  7193.  8327.  1127.]
Layer:  6   [18356.  3064.   701. 15377. 15238.  1669. 11230. 10048.  7412. 12595.
 17566.  7606. 11525.  4646.  9624. 12727. 13748.  9432.  4643. 12061.
 17306.  6967.  3661.  5021.  8978. 18175. 19561.  2191. 11424. 15027.
  3613. 14346. 18218. 13048. 18621.  5076.   436. 19910. 13939. 13650.
 13048. 11381. 17456. 13653.  4738. 11322. 13205.  7268.  3724. 11732.
  7506.  6893. 15478.  5425. 13092. 12003. 16091.  5632. 14626.  9939.
  3373.  3064.  7442.  6790. 16237.  3916.  9881. 19847. 12018.  7574.
  4606. 15209.]
Layer:  7   [14956. 15458. 17455. 13444.  2060. 11230.  9120.  3680.  2661.  4405.
 13762. 16913. 13693.  7252.  1957. 11831.  2471. 16106.  5146. 17859.
  3661. 19169.  6024.  4755. 17517. 17112.  8828. 11819.  4624.  4440.
 18218.  5970.  1672. 15390.  5076. 10488. 15135.  1485. 11322. 18358.
  3724.  7762. 12058. 19657. 16091. 11532. 19214.  2189. 18113.]
Layer:  8   [13168. 11099. 15801.  4755.   371. 11819.  5495.  4405.  3413.  9752.
 16265.   464. 17859. 15325. 19169.  6974.  4755.  5525. 14903. 10488.
 10488. 13075.  9390. 18818.  3093. 18515. 15146. 13379.  3007. 11772.
 19017.  7994.   464. 14377.  9221.  1076. 10700. 19391.]
Layer:  9   [ 1532.   607.  7442.  8757. 18485. 13012. 14451.  8311. 11356.  2068.
 10149.  4755.  2839.  6024. 13226.  6024.  8245. 10141. 16481. 12980.
 17749. 17455.  1244.  6180. 11997.  1897. 19408.  9913. 11978.  6888.
  3835. 12963.  9081.  5860.  4931.   884. 11937.  1160. 19241.  8350.
 14610. 10622.  5482.  2579. 14235. 13012.  2989. 15390. 19847.  8867.
 10348. 13000.  8341. 17391.  2068. 10537.  2934.  4755.  4177. 19391.
 13075. 13444.  3007. 11286. 13075.  6010.  3582. 19493.  8925.  7193.
 13487.  9867. 17002.  7968.  5382.  5224.   278.  7820.  5366. 10081.
  6232. 13075.  3613. 11548.  5096. 17833. 11912. 11469.  8350.  3415.
 17566.  5203.]
Total_attention forwar=6912, Total reuse=2991
Layer:  11   [1.2668e+04 1.4406e+04 3.2820e+03 6.8190e+03 1.8920e+04 1.7646e+04
 1.0045e+04 1.1860e+04 9.4410e+03 2.0450e+03 5.7540e+03 4.9270e+03
 1.0075e+04 2.8450e+03 2.4140e+03 9.6860e+03 1.2432e+04 8.9320e+03
 6.2300e+03 1.7722e+04 1.9838e+04 1.1600e+03 1.6427e+04 1.8685e+04
 1.2572e+04 1.2656e+04 4.6930e+03 5.8810e+03 6.1880e+03 1.2298e+04
 8.9250e+03 3.8730e+03 1.4445e+04 6.0780e+03 1.5690e+04 7.7900e+02
 3.2840e+03 8.2440e+03 6.0880e+03 5.9740e+03 1.9432e+04 5.6000e+01
 1.1981e+04 1.7351e+04 5.0210e+03 6.0510e+03 1.5849e+04 7.2780e+03
 1.6357e+04 1.3444e+04 1.5621e+04 1.1605e+04 2.8370e+03 5.3820e+03
 1.6118e+04 2.0270e+03 7.3740e+03 1.7870e+03 1.0045e+04 1.3877e+04
 4.2990e+03 1.3793e+04 8.9940e+03 1.2006e+04 7.1210e+03 1.4357e+04
 4.4750e+03 4.0640e+03 1.7498e+04 1.1551e+04 1.1605e+04 1.4202e+04
 1.8378e+04 1.6002e+04 1.6486e+04 1.8154e+04 7.1360e+03 1.0820e+04
 8.6070e+03 9.8880e+03 1.5142e+04 6.4390e+03 4.9310e+03 9.7320e+03
 5.6000e+01 1.9346e+04 7.6280e+03 1.3316e+04 3.0200e+02 2.3530e+03
 1.3819e+04 9.6020e+03 1.9099e+04 8.8780e+03 3.8900e+03 1.1980e+03
 8.4300e+02 1.9592e+04 1.8685e+04 4.0100e+03 9.9160e+03 1.7046e+04
 1.8308e+04 8.7660e+03 1.7498e+04 1.3143e+04 3.9280e+03 9.2210e+03
 1.2151e+04 8.5100e+02 1.8866e+04 5.5670e+03 1.6239e+04 1.5579e+04
 8.6070e+03 6.9740e+03 1.3853e+04 1.1980e+03 1.9210e+04 1.6220e+03
 5.3820e+03 1.4629e+04 6.0310e+03 9.5570e+03 1.0493e+04 2.4870e+03
 1.9924e+04 5.9910e+03 1.9432e+04 1.8217e+04 4.8530e+03 1.9002e+04
 7.0370e+03 7.7100e+02 1.1920e+03 1.2490e+03 1.1356e+04 1.6239e+04
 1.7303e+04 1.6230e+04 1.6063e+04 6.0780e+03 4.8320e+03 1.5497e+04
 7.7170e+03 1.3878e+04 1.9002e+04 1.6245e+04 1.8214e+04 9.6860e+03
 1.7821e+04 5.9110e+03 4.4440e+03 1.2697e+04 3.3670e+03 1.8135e+04
 9.7260e+03 9.1380e+03 4.8090e+03 9.9770e+03 1.2300e+04 9.8800e+03
 1.7811e+04 6.4120e+03 6.3190e+03 2.9640e+03 1.0485e+04 2.8350e+03
 1.6900e+02 1.7455e+04 6.8560e+03 5.6000e+01 1.3184e+04 1.8592e+04
 8.8360e+03 1.6877e+04 1.4655e+04 1.4038e+04 6.0600e+03 1.0990e+04
 9.3080e+03 1.5424e+04 1.0389e+04 6.8330e+03 3.1370e+03 6.1880e+03
 1.3308e+04 1.5842e+04 8.9000e+03 1.7438e+04 7.3060e+03 7.1100e+03
 4.5010e+03 1.2048e+04 1.9373e+04 1.6362e+04 4.8290e+03 9.4280e+03
 1.5143e+04 1.6243e+04 3.8640e+03 1.3400e+04 1.3806e+04 9.8250e+03
 1.5873e+04 1.6926e+04 5.7740e+03 8.1300e+03 1.8316e+04 1.3913e+04
 1.5127e+04 1.0904e+04 1.6531e+04 1.1810e+03 1.8310e+03 1.8250e+04
 1.1600e+04 1.3104e+04 4.6380e+03 5.3920e+03 3.2550e+03 1.4543e+04
 1.1000e+01 1.0318e+04 2.2780e+03 1.4105e+04 1.6239e+04 1.9582e+04
 1.2210e+04 9.9310e+03 1.6106e+04 1.1030e+03 1.1413e+04 1.8145e+04
 7.0340e+03 1.9205e+04 7.0530e+03 8.3900e+03 8.7270e+03 1.0904e+04
 6.9700e+02 6.8550e+03 2.7530e+03 2.7140e+03 6.9130e+03 1.0617e+04
 1.3012e+04 1.7873e+04 5.7640e+03 7.5340e+03 3.1800e+02 1.8861e+04
 1.9205e+04 1.0056e+04 1.0259e+04 1.5036e+04 6.3360e+03 6.7980e+03
 1.6318e+04 8.2500e+02 1.3220e+04 1.1860e+04 1.5478e+04 1.5937e+04
 1.9665e+04 8.6720e+03 1.9358e+04 1.2497e+04 3.8640e+03 2.7600e+02
 8.4700e+03 3.2820e+03 1.4330e+04 1.1819e+04 1.0232e+04 5.8960e+03
 6.1880e+03 2.2540e+03 1.1150e+03 1.5696e+04 1.9212e+04 5.8080e+03
 4.4430e+03 1.3424e+04 1.4838e+04 1.5920e+03 1.7038e+04 1.4543e+04
 6.1860e+03 1.3543e+04 1.1542e+04 8.7770e+03 1.9823e+04 9.6200e+03
 1.7991e+04 5.9700e+03 1.1105e+04]
Layer:  0   [5.4910e+03 1.5023e+04 1.6236e+04 3.4200e+02 1.4410e+03 6.8510e+03
 1.2755e+04 4.0550e+03 1.4629e+04 6.4710e+03 4.0430e+03 9.6900e+02
 1.2300e+02 1.1237e+04 1.6348e+04 1.6630e+03 1.4202e+04 1.8326e+04
 1.0525e+04 1.7043e+04 4.6240e+03 1.6411e+04 5.5890e+03 1.0510e+04
 1.4721e+04 1.0813e+04 1.6481e+04 6.7930e+03 1.2856e+04 5.8170e+03
 1.5520e+03 1.5893e+04 1.4072e+04 4.1770e+03 9.7100e+02 1.5664e+04
 1.0800e+02 1.0605e+04 5.1340e+03 1.3543e+04 5.7000e+03 6.3730e+03
 1.3410e+03 1.4428e+04 7.4910e+03 1.4160e+03 8.6780e+03 5.0730e+03
 1.1757e+04 5.7000e+03 1.8844e+04 5.7710e+03 1.8121e+04 1.9751e+04
 1.3008e+04 2.5540e+03 4.0700e+03 2.7050e+03 3.1040e+03 4.1700e+02
 8.5260e+03 1.8961e+04 1.2235e+04 1.1684e+04 1.0455e+04 1.9450e+04
 1.2493e+04 1.6379e+04 1.1063e+04 1.4721e+04 3.3840e+03 1.9340e+03
 5.8150e+03 1.3944e+04 3.2030e+03 9.1320e+03 1.7845e+04 6.0780e+03
 8.0340e+03 7.3580e+03 1.9891e+04 1.4259e+04 1.0491e+04 9.3830e+03
 9.7100e+02 7.4100e+03 1.6720e+03 1.3508e+04 1.4445e+04 8.2620e+03
 6.9280e+03 1.8362e+04 9.4230e+03 1.8114e+04 8.9830e+03 5.5510e+03
 1.4311e+04 1.5649e+04 6.9470e+03 3.5740e+03 1.6892e+04 1.2040e+03
 5.3310e+03 1.4184e+04 5.3430e+03 1.1550e+03 1.1682e+04 1.1021e+04
 9.9550e+03 1.2690e+04 5.8150e+03 1.3237e+04 1.5595e+04 9.9990e+03
 1.1969e+04 1.1908e+04 1.5070e+04 1.0037e+04 1.7719e+04 7.6300e+03
 1.1469e+04 7.1130e+03 3.9450e+03 1.5853e+04 8.7640e+03 1.6630e+03
 6.3820e+03 3.1840e+03 4.4240e+03 7.4640e+03 2.9970e+03 6.1730e+03
 1.4813e+04 1.3621e+04 3.8340e+03 1.5929e+04 1.1715e+04 1.2480e+04
 1.5800e+03 4.7410e+03 1.4284e+04 7.6560e+03 7.1540e+03 2.6200e+03
 8.0900e+02 3.0100e+02 1.6836e+04 1.1643e+04 1.7406e+04 1.6012e+04
 1.3472e+04 8.5220e+03 4.0310e+03 1.0406e+04 1.8849e+04 1.6386e+04
 1.1860e+04 1.2141e+04 1.2230e+03 1.3659e+04 1.4964e+04 3.3330e+03
 1.4627e+04 1.8970e+03 1.2306e+04 7.8360e+03 1.9645e+04 1.5952e+04
 1.7637e+04 7.0090e+03 1.2862e+04 1.5428e+04 1.1190e+04 1.4678e+04
 1.5473e+04 1.8362e+04 1.1340e+03 2.2290e+03 1.9941e+04 1.7630e+04
 1.4698e+04 5.7000e+03 1.0800e+02 5.4770e+03 8.1870e+03 1.2436e+04
 3.9900e+03 2.5860e+03 1.2572e+04 6.9740e+03 8.6910e+03 1.6012e+04
 1.1675e+04 2.6620e+03 1.4480e+04 9.5460e+03 1.0739e+04 1.5952e+04
 2.2270e+03 8.7000e+01 1.5419e+04 1.0141e+04 1.5051e+04 1.5159e+04
 1.6481e+04 1.9452e+04 1.7504e+04 1.8834e+04 1.4070e+03 1.1880e+03
 9.6900e+02 7.8410e+03 1.9327e+04 2.5790e+03 2.6610e+03 1.2922e+04
 6.4500e+03 3.3840e+03 7.3470e+03 1.5684e+04 8.9830e+03 1.3363e+04
 1.9002e+04 6.3280e+03 1.6622e+04 1.5540e+03 6.0760e+03 1.3943e+04
 1.6814e+04 6.9080e+03 3.7800e+03 1.9580e+04 8.8280e+03 1.2373e+04
 8.0000e+00 1.7236e+04 8.1170e+03 1.8772e+04 1.4121e+04 3.5990e+03
 1.3543e+04 1.5995e+04 1.6887e+04 1.1271e+04 1.0605e+04 1.1846e+04
 5.1600e+02 7.0700e+03 9.9190e+03 5.5350e+03 1.2296e+04 9.5060e+03
 4.9110e+03 1.7024e+04 5.0720e+03 1.8906e+04 1.0218e+04 1.4607e+04
 1.9337e+04 2.4830e+03 1.5728e+04 1.4980e+04 1.6220e+03 3.1070e+03
 7.1050e+03 1.4311e+04 5.7980e+03 4.0000e+00 8.3510e+03 6.6450e+03
 1.3785e+04 7.8620e+03 6.2300e+02 1.7658e+04 8.8280e+03 1.8450e+03
 1.9269e+04 1.0273e+04 7.7200e+03 7.1800e+03 5.5380e+03 1.1041e+04
 1.6623e+04 1.7504e+04 1.9943e+04 1.3142e+04 2.4870e+03 1.0393e+04
 9.9740e+03 1.5159e+04 4.0000e+00 1.2058e+04 7.8190e+03 1.2575e+04
 8.9340e+03 4.7230e+03 6.3490e+03 1.2658e+04 1.0322e+04 9.8250e+03
 8.8940e+03 3.8750e+03 1.1180e+04 8.1350e+03 1.0738e+04 1.5450e+04
 7.1090e+03 1.1367e+04 1.9614e+04 1.5206e+04 1.4954e+04 1.5289e+04
 5.3780e+03 1.0516e+04 1.1474e+04 6.7320e+03 4.2700e+03 1.3205e+04
 7.0410e+03 4.4490e+03 1.2755e+04 7.6870e+03 1.2067e+04 1.6289e+04
 1.1107e+04 2.9820e+03 1.6489e+04 1.8871e+04 3.3300e+03 6.5680e+03
 6.5300e+02 1.0571e+04 1.8154e+04 1.6571e+04 4.7280e+03 4.1770e+03
 1.5469e+04 3.3700e+03 1.4704e+04 3.8670e+03 5.8500e+02 5.5820e+03
 1.3220e+04 1.4948e+04 6.3740e+03 3.5010e+03 1.8241e+04 1.5318e+04
 1.3111e+04 1.8036e+04 1.5651e+04 7.3810e+03 1.6026e+04 1.1466e+04
 6.4310e+03 1.5380e+04 1.9340e+03 7.9750e+03 1.1600e+04 6.1610e+03
 3.5870e+03 1.2040e+03 1.9099e+04 3.1070e+03 8.2620e+03 4.7720e+03
 8.5110e+03 2.8650e+03 9.5040e+03 8.9000e+03 5.9750e+03 9.8250e+03
 1.6486e+04 7.6300e+03 1.3163e+04 1.8963e+04 1.4767e+04 1.0598e+04
 9.5830e+03 4.3050e+03 1.8534e+04 1.4359e+04 1.0010e+03 1.2192e+04
 7.4440e+03 9.3230e+03 1.6102e+04 4.2050e+03 1.7008e+04 6.4900e+03
 5.6000e+01 6.8880e+03 1.8800e+04 1.2785e+04 1.5635e+04 8.2370e+03
 1.2073e+04 6.3730e+03 1.9010e+04 6.1500e+02 1.9950e+04 8.1760e+03
 1.1021e+04 9.2980e+03 1.1787e+04 1.5578e+04 7.2000e+03 9.5670e+03
 5.8800e+02 3.8730e+03 2.9720e+03 7.0960e+03 1.4486e+04 2.7010e+03
 1.2488e+04 1.4518e+04 1.7310e+03 1.4302e+04 1.4014e+04 2.8710e+03
 7.4200e+03 3.1410e+03 1.3261e+04 1.6500e+02 1.8849e+04 1.3880e+04
 1.1600e+04 6.8750e+03 6.8860e+03 1.9638e+04 9.9190e+03 8.9450e+03
 1.9247e+04 2.2720e+03 3.6790e+03 5.3000e+03 5.0300e+02 1.9563e+04
 4.1590e+03 4.4310e+03 3.8230e+03 1.7468e+04 9.9370e+03 1.9171e+04
 5.0630e+03 2.4500e+02 4.2940e+03 1.0386e+04 1.7861e+04 7.0640e+03
 1.0537e+04 1.2455e+04 3.0500e+02 4.0580e+03 3.2550e+03 1.3314e+04
 1.1413e+04 1.3538e+04 1.6385e+04 1.4728e+04 1.0813e+04 9.5210e+03
 1.4450e+04 1.6793e+04 4.3900e+02 6.8690e+03 8.8340e+03 1.6762e+04
 1.7108e+04 1.4498e+04 4.7270e+03 6.4200e+02 1.3138e+04 1.0464e+04
 1.2952e+04 1.8206e+04 6.0510e+03 1.4518e+04 1.6112e+04 1.3896e+04
 5.7640e+03 1.0790e+03 3.8640e+03 4.0580e+03 1.7282e+04 2.3080e+03
 1.3968e+04 1.5715e+04 3.8640e+03 1.0088e+04 1.9874e+04 1.0820e+04
 4.7030e+03 1.4528e+04 1.8157e+04 3.8660e+03 5.4510e+03 1.5678e+04
 1.2488e+04 3.8750e+03 1.8415e+04 1.7719e+04 3.1100e+03 4.0710e+03
 7.9430e+03 9.0570e+03 1.4125e+04 1.2288e+04 1.9344e+04 1.4331e+04
 9.5980e+03 1.6063e+04 1.8158e+04 1.4235e+04 9.1520e+03 1.9214e+04
 1.6743e+04 1.2440e+03 4.1690e+03 1.6191e+04 2.3700e+03 6.6080e+03
 1.4040e+04 1.3377e+04 1.2070e+04 1.3228e+04 1.9314e+04 9.9290e+03
 1.8976e+04 9.9740e+03 3.2200e+02 2.8450e+03 1.6270e+03 3.0200e+02
 1.6799e+04 1.6379e+04 4.9670e+03 6.9740e+03 5.4740e+03 6.1810e+03
 1.8981e+04 1.5225e+04 6.7130e+03 1.2320e+04 1.6348e+04 1.9168e+04
 8.5000e+01 1.3537e+04 6.6670e+03 1.5594e+04 1.5900e+04 1.5359e+04
 1.9750e+03 1.6720e+03 6.8360e+03 1.8944e+04 1.6673e+04 6.3770e+03
 1.5692e+04 1.4836e+04 8.5650e+03 8.4690e+03 7.4460e+03 6.0780e+03
 1.5304e+04 3.4650e+03 1.5542e+04 1.3851e+04 8.9340e+03 9.6500e+03
 2.8350e+03 3.0490e+03 2.8700e+02 1.2597e+04 5.2300e+02 5.7640e+03
 1.8539e+04 2.9810e+03 1.0487e+04 1.5561e+04 1.3417e+04 1.0760e+04
 7.0670e+03 6.3650e+03 2.4830e+03 1.2640e+04 1.2027e+04 8.3630e+03
 6.3260e+03 1.8291e+04 7.3810e+03 1.7625e+04 1.2032e+04 1.8113e+04
 1.4434e+04 1.4235e+04 1.3123e+04 2.9800e+03 8.9080e+03 1.4505e+04
 6.8390e+03 9.4670e+03 1.6290e+03 1.2520e+03 4.9390e+03 4.0860e+03
 1.9753e+04 1.0652e+04 1.9656e+04 1.4719e+04 8.9150e+03 1.5866e+04
 1.4690e+04 1.9139e+04 1.4840e+03 1.3416e+04 4.1670e+03 7.0700e+03
 1.5390e+04 1.9711e+04 1.5896e+04 9.9470e+03 2.7580e+03 3.6380e+03
 1.0361e+04 3.0080e+03 8.1300e+02 9.4650e+03 1.1046e+04 8.3450e+03
 6.0640e+03 6.0830e+03 6.5620e+03 1.9751e+04 1.9315e+04 1.6681e+04
 9.4310e+03 1.5963e+04 6.8980e+03 6.7820e+03]
Layer:  1   [3.3880e+03 1.4816e+04 8.4900e+03 1.3278e+04 2.7300e+02 1.9014e+04
 1.3053e+04 1.4550e+03 1.9279e+04 2.6610e+03 1.0020e+03 1.3379e+04
 1.1542e+04 1.1664e+04 1.7312e+04 3.4130e+03 3.2190e+03 1.6284e+04
 1.5627e+04 9.3740e+03 1.8811e+04 5.3410e+03 1.3281e+04 1.6340e+03
 1.6931e+04 1.8300e+02 1.1154e+04 1.3968e+04 4.7630e+03 5.8170e+03
 1.4924e+04 3.5760e+03 1.1312e+04 5.6010e+03 3.3730e+03 1.7534e+04
 1.2945e+04 1.3444e+04 1.5747e+04 1.0791e+04 9.8490e+03 1.2381e+04
 5.3700e+03 1.5565e+04 1.1401e+04 9.6970e+03 1.8139e+04 1.2907e+04
 8.4010e+03 1.9394e+04 1.8991e+04 1.3350e+03 1.8819e+04 1.9375e+04
 2.1890e+03 1.4932e+04 1.4324e+04 1.1346e+04 1.3413e+04 9.9460e+03
 4.2160e+03 1.4451e+04 1.5389e+04 1.8679e+04 1.0629e+04 1.6966e+04
 1.8615e+04 5.7900e+02 1.9878e+04 1.9412e+04 1.9570e+03 1.8030e+04
 1.8381e+04 4.2070e+03 1.7504e+04 1.8750e+03 4.1850e+03 6.3680e+03
 7.1490e+03 1.3379e+04 6.9900e+02 8.4900e+03 1.5617e+04 1.3600e+02
 5.3920e+03 9.8670e+03 7.5270e+03 7.5270e+03 1.8558e+04 1.3063e+04
 1.6947e+04 1.1401e+04 9.7720e+03 4.0760e+03 1.8774e+04 1.6570e+03
 1.4964e+04 6.3110e+03 1.7676e+04 1.6041e+04 3.6410e+03 7.7500e+03
 8.4770e+03 6.8430e+03 1.3379e+04 1.5661e+04 1.2547e+04 1.4518e+04
 1.3383e+04 1.5130e+04 5.0000e+00 9.7720e+03 1.8317e+04 1.6727e+04
 3.1810e+03 2.4600e+03 1.2680e+04 1.6288e+04 6.2010e+03 4.0320e+03
 1.4997e+04 1.7760e+03 8.5450e+03 1.1529e+04 1.7952e+04 6.1060e+03
 7.4650e+03 1.3444e+04 1.8844e+04 2.4500e+02 3.2370e+03 1.8411e+04
 1.7065e+04 1.6284e+04 6.0510e+03 9.5860e+03 1.7610e+03 2.7880e+03
 1.8506e+04 1.5060e+03 1.5662e+04 2.7430e+03 9.3420e+03 6.8600e+02
 1.1542e+04 1.4560e+04 4.4820e+03 1.5884e+04 1.8292e+04 1.5308e+04
 4.5590e+03 1.3408e+04 1.1685e+04 1.9608e+04 9.7000e+03 1.9408e+04
 5.8880e+03 1.3027e+04 2.5620e+03 8.7000e+03 2.7140e+03 1.7568e+04
 3.3400e+02 1.5011e+04 4.5540e+03 2.7580e+03 1.3444e+04 2.2440e+03
 6.0760e+03 1.2907e+04 2.5320e+03 1.3302e+04 5.7990e+03 1.0629e+04
 1.6821e+04 3.5990e+03 1.3854e+04 5.3280e+03 1.9668e+04 7.6500e+03
 1.1813e+04 1.9731e+04 1.3314e+04 1.6998e+04 1.6284e+04 1.4952e+04
 1.6159e+04 9.8670e+03 3.8010e+03 8.3000e+02 9.2210e+03 1.0820e+04
 3.1370e+03 4.0000e+01 1.6740e+04 1.0957e+04 1.8945e+04 3.1050e+03
 1.6371e+04 1.6767e+04 7.4900e+03 3.0930e+03 1.4687e+04 3.1800e+02
 1.3857e+04 3.4900e+03 2.7430e+03 1.3651e+04 1.5666e+04 1.4916e+04
 1.4346e+04 1.7488e+04 8.1770e+03 1.6371e+04 7.4800e+02 1.2945e+04
 1.2335e+04 1.5661e+04 1.7544e+04 1.8679e+04 1.3350e+03 1.7641e+04
 4.0690e+03 1.0230e+03 1.3600e+02 7.8040e+03 1.8224e+04 2.9380e+03
 1.2570e+03 9.0620e+03 1.4924e+04 1.3379e+04 5.5150e+03 1.8435e+04
 1.8030e+04 1.3444e+04 1.0334e+04 1.0167e+04 1.2680e+04 1.2920e+04
 3.6900e+02 1.8136e+04 3.9400e+02 1.8991e+04 4.6150e+03 3.5760e+03
 1.5677e+04 1.3749e+04 6.1900e+02 1.8936e+04 1.9412e+04 1.2182e+04
 2.9360e+03 1.1570e+04 1.5561e+04 6.2980e+03 1.1682e+04 1.8465e+04
 4.2500e+03 1.3038e+04 1.7488e+04 9.2240e+03 1.2859e+04 1.9596e+04
 2.7140e+03 9.1230e+03 1.5291e+04 7.7500e+03 9.3900e+03 6.7720e+03
 6.5780e+03 1.7256e+04 1.4715e+04 1.3379e+04 1.9854e+04 1.8774e+04
 1.9768e+04 1.5389e+04 1.6180e+04 1.3455e+04 9.9520e+03 1.1702e+04
 1.7110e+03 7.3260e+03 5.8720e+03 9.3640e+03 1.8043e+04 1.6900e+02
 1.7287e+04 1.9180e+03 1.8774e+04 1.6288e+04 1.0600e+02 5.2800e+02
 4.0860e+03 5.3660e+03 1.5374e+04 1.3413e+04 6.5000e+02 4.4960e+03
 3.8230e+03 1.1339e+04 2.6230e+03 1.1510e+04 9.0970e+03 7.3260e+03
 1.2265e+04 9.3920e+03 9.0090e+03 1.3063e+04 3.0610e+03 1.0854e+04
 4.1850e+03 1.6412e+04 1.2358e+04 1.9650e+04 1.3205e+04 1.9596e+04
 1.0990e+04 1.4035e+04 1.7700e+04 1.8317e+04 1.1016e+04 5.8630e+03
 7.5270e+03 2.7430e+03 1.1070e+03 9.9300e+03 2.9360e+03 1.1302e+04
 1.7701e+04 2.2900e+02 3.4970e+03 1.9730e+04 4.6000e+03 3.3480e+03
 4.2070e+03 6.3110e+03 1.8950e+03 1.5884e+04 1.3995e+04 1.8774e+04
 2.7990e+03 9.0970e+03 5.2800e+02 9.3870e+03 1.3479e+04 1.4510e+04
 1.5985e+04 1.3089e+04 9.8670e+03 1.5736e+04 4.7060e+03 1.3531e+04
 1.7798e+04 8.1170e+03 3.4570e+03 7.3900e+02 4.0690e+03 1.5487e+04
 7.5270e+03 1.1160e+03 5.7000e+03 4.8190e+03 7.2800e+03 1.3968e+04
 1.1642e+04 1.9010e+04 1.6288e+04 1.6371e+04 3.2990e+03 1.5011e+04
 1.8788e+04 1.3854e+04 8.3700e+02 3.2090e+03 1.1890e+04 4.4190e+03
 1.1689e+04 1.9627e+04 1.2945e+04 1.7219e+04 1.8900e+03 5.8600e+03
 6.3110e+03 7.9670e+03 1.2710e+03 1.7701e+04 7.5270e+03 1.0588e+04
 1.7110e+03 4.6600e+03 1.6284e+04 1.9596e+04 4.9020e+03 2.2850e+03
 1.3153e+04 3.4800e+02 6.0050e+03 1.5865e+04 6.8010e+03 9.7200e+03
 9.4680e+03 9.2000e+02 9.7290e+03 2.4000e+03 4.6400e+03 9.6590e+03
 1.4326e+04 1.4674e+04 2.7900e+02 1.4160e+03 1.3676e+04 4.3120e+03
 8.1560e+03 1.4590e+04 1.4445e+04 4.6840e+03 1.6924e+04 1.0196e+04
 1.8811e+04 1.1862e+04 1.8400e+02 1.3408e+04 1.3831e+04 3.0070e+03
 4.4350e+03 4.6150e+03 2.8100e+03 1.6942e+04 9.0090e+03 1.3968e+04
 1.0836e+04 4.5020e+03 5.4070e+03 1.3261e+04 1.6284e+04 1.7980e+04
 1.7886e+04 1.5368e+04 1.1675e+04 9.7390e+03 1.3744e+04 1.6118e+04
 1.3843e+04 1.3383e+04 2.7170e+03 1.4334e+04 1.9645e+04 2.7910e+03
 8.3970e+03 3.5760e+03 1.9596e+04 1.3350e+03 5.0080e+03 8.8470e+03
 1.0393e+04 9.6900e+02 1.5146e+04 5.6700e+03 3.2900e+02 9.4310e+03
 1.3837e+04 2.6610e+03 1.3600e+02 1.4924e+04 1.7370e+03 5.0170e+03
 4.5260e+03 3.9750e+03 1.9438e+04 8.5440e+03 1.1180e+03 5.8600e+03
 6.5230e+03 1.4518e+04 4.5540e+03 1.4670e+04 1.2255e+04 1.1683e+04
 4.6240e+03 7.3730e+03 1.5755e+04 4.0160e+03 2.2330e+03 2.5830e+03
 1.3437e+04 1.4058e+04 1.8184e+04 1.3624e+04 6.4350e+03 1.9006e+04
 3.8660e+03 1.9365e+04 1.7210e+04 1.1542e+04 3.2000e+03 1.3530e+04
 1.1900e+02 4.2100e+03 1.3063e+04 1.3677e+04 3.3320e+03 9.7580e+03
 1.5374e+04 8.8530e+03 4.0390e+03 1.0563e+04 9.7060e+03 2.3710e+03
 6.9230e+03 1.9114e+04 1.3152e+04 1.2273e+04 1.2440e+03 1.6329e+04
 2.6170e+03 2.3700e+03 2.9250e+03 6.3730e+03 5.5150e+03 1.3744e+04
 1.4300e+03 9.7720e+03 1.4810e+03 1.7655e+04 8.9830e+03 1.2980e+04
 5.2800e+02 1.3581e+04 4.9390e+03 1.8303e+04 8.3330e+03 7.2800e+03
 1.7676e+04 6.5680e+03 1.1723e+04 1.7945e+04 1.6070e+03 2.3870e+03
 1.4507e+04 1.3968e+04 1.6236e+04 1.2210e+04 9.8670e+03 9.6930e+03
 2.7750e+03 8.7210e+03 5.1620e+03 1.4071e+04 1.3854e+04 7.3480e+03
 8.4690e+03 1.4320e+03 3.3300e+02 4.1770e+03 5.7760e+03 6.9670e+03
 1.3444e+04 1.3883e+04 1.8400e+04 1.3063e+04 1.1780e+04 1.1576e+04
 5.3750e+03 6.3880e+03 1.2456e+04 1.1685e+04 1.8590e+04 1.2802e+04
 1.7109e+04 2.5830e+03 1.0660e+04 1.0196e+04 1.2907e+04 1.6325e+04
 1.0563e+04 1.0317e+04 3.4800e+02 1.5497e+04 1.8305e+04 2.4830e+03
 1.6526e+04 9.8670e+03 4.2050e+03 1.8774e+04 2.6510e+03 1.3600e+02
 8.6510e+03 1.3968e+04 1.4326e+04 1.8173e+04 3.5760e+03 1.1787e+04
 1.6288e+04 1.9530e+03 1.5437e+04 1.6270e+03 4.2700e+02 1.5675e+04
 1.0791e+04 1.3129e+04 1.0188e+04 1.1930e+03 1.6407e+04 1.5840e+04
 6.5320e+03 1.0900e+02 6.6200e+02 5.1340e+03 1.8729e+04 6.5480e+03
 5.1010e+03 1.8774e+04 1.3379e+04 3.2320e+03 5.9620e+03 1.2500e+04
 1.9168e+04 1.2039e+04 8.9330e+03 1.9336e+04 8.4150e+03 1.9375e+04
 6.4030e+03 1.3444e+04 1.9974e+04 4.2440e+03 1.4976e+04 1.8083e+04
 1.2504e+04 6.3730e+03 6.8400e+03 1.9768e+04 5.5400e+03 2.4830e+03
 6.4130e+03]
Layer:  2   [6.1050e+03 8.9060e+03 1.3863e+04 1.0018e+04 1.8703e+04 3.2250e+03
 4.8890e+03 1.6998e+04 1.4284e+04 2.0900e+03 9.0150e+03 3.6310e+03
 5.8090e+03 1.6093e+04 1.4530e+03 2.9820e+03 1.7480e+04 7.2900e+03
 1.1948e+04 2.0330e+03 4.9340e+03 2.1060e+03 3.2300e+02 1.3835e+04
 1.9282e+04 1.6259e+04 5.5330e+03 1.6093e+04 1.9247e+04 1.5408e+04
 8.3970e+03 1.8300e+02 1.3848e+04 9.5430e+03 4.1530e+03 6.3940e+03
 2.9800e+03 2.0900e+03 1.0018e+04 8.2820e+03 1.2706e+04 1.6093e+04
 8.5220e+03 7.9740e+03 1.1770e+03 1.6095e+04 6.6800e+03 4.8840e+03
 6.3520e+03 9.0320e+03 9.0850e+03 9.1050e+03 1.2859e+04 6.5700e+02
 6.4230e+03 1.3667e+04 2.9800e+03 4.9110e+03 4.7230e+03 9.5430e+03
 4.8700e+03 9.5430e+03 2.0330e+03 7.3390e+03 1.6756e+04 5.6130e+03
 1.8615e+04 1.5013e+04 3.1740e+03 1.1940e+03 4.0960e+03 1.2440e+04
 1.0914e+04 1.2417e+04 4.8000e+02 6.3520e+03 4.6850e+03 8.1990e+03
 3.8350e+03 1.5290e+03 7.4810e+03 8.2230e+03 9.3720e+03 5.4740e+03
 1.8988e+04 1.9438e+04 1.2032e+04 7.4650e+03 1.0869e+04 1.1068e+04
 6.3680e+03 1.8362e+04 1.0135e+04 1.8539e+04 8.9000e+03 1.0833e+04
 5.5330e+03 5.5330e+03 1.4179e+04 6.8800e+02 1.6093e+04 5.6150e+03
 5.6700e+03 1.1295e+04 5.9830e+03 2.0900e+03 5.3310e+03 1.6093e+04
 1.1966e+04 1.8353e+04 1.9795e+04 1.1786e+04 1.6507e+04 1.0784e+04
 2.9800e+03 1.1770e+03 2.9380e+03 1.7898e+04 1.6093e+04 1.4716e+04
 5.5330e+03 7.2900e+02 1.9481e+04 1.9610e+03 1.0869e+04 2.9930e+03
 1.3910e+04 8.3970e+03 1.6628e+04 1.1450e+04 3.2370e+03 1.7290e+03
 9.4800e+02 1.2291e+04 1.3468e+04 8.9810e+03 1.4223e+04 1.2942e+04
 6.7300e+03 5.0000e+00 2.2120e+03 1.2648e+04 1.0310e+03 2.1430e+03
 1.0272e+04 9.5430e+03 1.1610e+04 5.1460e+03 1.0433e+04 1.9609e+04
 6.7300e+03 4.0500e+02 9.5430e+03 6.7850e+03 6.5110e+03 1.8598e+04
 1.2648e+04 1.0291e+04 9.5430e+03 6.9070e+03 4.8510e+03 5.0970e+03
 1.6093e+04 1.2789e+04 1.4687e+04 1.8560e+03 3.7380e+03 4.2110e+03
 1.3530e+04 1.6187e+04 1.3082e+04 1.1529e+04 2.9860e+03 1.4782e+04
 5.1660e+03 1.8074e+04 7.5270e+03 2.9800e+03 6.9110e+03 1.7909e+04
 9.1760e+03 9.7640e+03 4.9390e+03 1.8562e+04 3.7710e+03 5.0590e+03
 2.5860e+03 5.0590e+03 5.3030e+03 1.6916e+04 1.0869e+04 1.8252e+04
 1.4782e+04 1.6093e+04 1.3205e+04 1.8016e+04 1.9449e+04 5.8840e+03
 9.5430e+03 1.8598e+04 1.0869e+04 1.0869e+04 9.5950e+03 1.5587e+04
 5.5330e+03 1.7256e+04 1.8362e+04 9.0910e+03 1.2337e+04 1.5280e+04
 8.2190e+03 9.3090e+03 8.1770e+03 5.5330e+03 3.9110e+03 1.2585e+04
 1.6093e+04 1.5760e+04 1.7290e+03 4.4180e+03 4.4180e+03 1.5020e+03
 6.8690e+03 1.5507e+04 2.9800e+03 5.6140e+03 8.7780e+03 1.8353e+04
 1.7008e+04 3.3000e+02 1.2371e+04 3.7710e+03 9.1630e+03 7.1360e+03
 4.2090e+03 2.9800e+03 8.3970e+03 1.3202e+04 3.9620e+03 1.4716e+04
 9.1750e+03 1.4444e+04 1.7273e+04 8.9600e+03 4.8510e+03 1.9438e+04
 1.1189e+04 3.7710e+03 2.3990e+03 1.9487e+04 1.0796e+04 1.7320e+04
 1.3299e+04 1.6884e+04 2.1910e+03 9.9500e+03 9.9860e+03 9.9500e+03
 2.2100e+03 5.1880e+03 9.1050e+03 2.1910e+03 8.2190e+03 1.0856e+04
 1.0457e+04 5.5330e+03 3.7710e+03 5.3310e+03 9.3720e+03 3.2250e+03
 1.7070e+04 8.1920e+03 1.6778e+04 2.5740e+03 1.5290e+03 1.3018e+04
 8.0190e+03 1.6093e+04 1.8074e+04 1.1293e+04 1.4180e+03 1.5667e+04
 4.6290e+03 7.6320e+03 1.1712e+04 3.7990e+03 1.4284e+04 8.8280e+03
 1.1189e+04 5.7040e+03 8.1990e+03 1.5760e+04 8.3750e+03 1.4222e+04
 3.7710e+03 1.7320e+04 1.6259e+04 1.7701e+04 2.3950e+03 4.8700e+03
 1.7907e+04 9.9200e+03 1.0435e+04 1.5184e+04 3.3170e+03 1.2031e+04
 1.5701e+04 4.9320e+03 6.0050e+03 1.5450e+04 1.9806e+04 4.3840e+03
 1.5790e+04 4.6850e+03 1.8470e+04 8.3320e+03 4.1280e+03 6.2680e+03
 9.0620e+03 9.1390e+03 6.7760e+03 1.6152e+04 3.8050e+03 1.8812e+04
 8.3970e+03 1.9340e+04 1.6264e+04 5.3360e+03 1.1119e+04 9.6070e+03
 9.7130e+03 4.2700e+03 9.4800e+02 7.3810e+03 4.7280e+03 2.0900e+03
 1.5760e+04 1.4782e+04 5.8020e+03 1.4716e+04 5.5330e+03 1.3863e+04
 1.2270e+04 1.5379e+04 6.7110e+03 8.0700e+03 1.6574e+04 1.4570e+04
 1.5580e+04 1.4180e+03 4.2490e+03 5.3560e+03 1.8909e+04 4.3000e+01
 7.3600e+02 3.7500e+02 5.5330e+03 2.5860e+03 8.3970e+03 1.2564e+04
 1.0986e+04 1.8988e+04 1.9371e+04 1.6553e+04 2.1200e+02 5.0590e+03
 1.6093e+04 1.9003e+04 7.1640e+03 1.3940e+03 1.6884e+04 1.1783e+04
 8.0700e+03 1.5725e+04 4.4310e+03 2.1200e+02 5.6140e+03 2.5600e+02
 4.8510e+03 2.1200e+02 1.3545e+04 5.5330e+03 1.6779e+04 2.0060e+03
 4.7280e+03 6.8490e+03 6.7000e+03 1.5223e+04 1.2849e+04 3.9480e+03
 1.6093e+04 5.5330e+03 1.8074e+04 7.6430e+03 4.7280e+03 4.2440e+03
 6.1910e+03 1.1664e+04 1.3312e+04 9.4050e+03 2.1910e+03 9.8130e+03
 1.9438e+04 1.1526e+04 1.1261e+04 1.5725e+04 3.7710e+03 5.3470e+03
 1.7312e+04 1.1996e+04 1.6093e+04 1.4674e+04 1.5049e+04 1.8460e+04
 1.6529e+04 6.8560e+03 2.2000e+01 1.5621e+04 1.0869e+04 1.9732e+04
 1.7273e+04 9.0320e+03 1.6623e+04 4.8270e+03 1.2688e+04 1.8831e+04
 1.0869e+04 1.2575e+04 9.8340e+03 6.8490e+03 1.1293e+04 1.6001e+04
 5.1110e+03 9.2370e+03 4.3370e+03 1.6441e+04 4.7230e+03 1.3783e+04
 5.9830e+03 3.3970e+03 4.7280e+03 4.4180e+03 3.5570e+03 1.9340e+04
 1.5158e+04 1.8228e+04 5.5330e+03 1.7312e+04 1.4782e+04 1.5827e+04
 5.7640e+03 1.5158e+04 9.5430e+03 1.3783e+04 1.6528e+04 9.8130e+03
 1.6259e+04 1.9450e+04 8.9810e+03 6.7530e+03 9.8130e+03 8.3180e+03
 1.7533e+04 1.4782e+04 3.9480e+03 7.4930e+03 1.4782e+04 1.8515e+04
 1.0359e+04 2.0940e+03 5.1580e+03 1.0029e+04 5.8020e+03 1.4222e+04
 1.5408e+04 1.5158e+04 1.1519e+04 5.3560e+03 1.0786e+04 8.2710e+03
 9.5430e+03 8.4900e+02 1.3783e+04 1.4222e+04 1.3150e+03 9.1640e+03
 1.3172e+04 1.1770e+03 1.4002e+04 1.7195e+04 1.9100e+02 1.8515e+04
 1.4818e+04 1.7111e+04 5.5330e+03 1.7312e+04 1.0322e+04 4.1530e+03
 1.1328e+04 1.5309e+04 1.5590e+03 1.2032e+04 5.5330e+03 1.6997e+04
 1.4227e+04 1.4345e+04 9.2860e+03 5.6130e+03 5.0600e+03 5.4940e+03
 1.1944e+04 1.3383e+04 1.6884e+04 3.9110e+03 9.1410e+03 8.4070e+03
 3.1350e+03 8.7900e+02 3.8030e+03 5.2170e+03 8.3970e+03 1.5672e+04
 1.6093e+04 1.6194e+04 3.7480e+03 1.2522e+04 1.4398e+04 1.3970e+03
 5.2030e+03 5.5330e+03 1.0833e+04 1.6297e+04 1.4690e+04 1.7312e+04
 5.1860e+03 1.3951e+04 3.2250e+03 7.3810e+03 1.2417e+04 5.6330e+03
 1.5321e+04 1.5910e+03 1.8079e+04 2.9800e+03 1.2479e+04 1.6914e+04
 8.3750e+03 1.0833e+04 9.4050e+03 1.2413e+04 4.2510e+03 6.7100e+03
 3.1060e+03 7.3990e+03 1.0330e+03 1.4222e+04 1.2731e+04 8.0330e+03
 1.6259e+04 4.5640e+03 1.0157e+04 1.4706e+04 1.1894e+04 1.1770e+03
 1.5725e+04 4.2700e+03 4.1530e+03 1.6884e+04 3.2910e+03 1.4292e+04
 1.9438e+04 1.6259e+04 2.1060e+03 8.2700e+02 2.8370e+03 9.0850e+03
 9.0320e+03 8.7390e+03 1.9560e+04 9.9500e+03 8.0330e+03 6.3190e+03
 3.7710e+03 1.0536e+04 1.6877e+04 1.0291e+04 1.3546e+04 1.2859e+04
 2.9800e+03 1.8441e+04 6.4230e+03 2.1640e+03 6.6790e+03 1.2265e+04
 1.0513e+04 1.0869e+04 1.1328e+04 8.9000e+03 7.9210e+03 5.1900e+03
 1.3389e+04 1.7100e+04 9.6910e+03 9.9500e+03 5.8020e+03 1.7551e+04
 1.5606e+04 1.1180e+03 3.3780e+03 9.5430e+03 8.5740e+03 1.1712e+04
 1.0833e+04 1.6643e+04 1.9641e+04 8.3970e+03 2.9800e+03 1.0348e+04
 1.6355e+04 9.1760e+03 1.0833e+04 9.0320e+03 4.0500e+02 1.4959e+04
 1.3570e+04 1.2521e+04 1.0006e+04 2.8070e+03 9.5430e+03 1.4292e+04
 1.8590e+03 7.4800e+03 1.2942e+04 1.0135e+04 4.0190e+03 1.0207e+04
 1.0629e+04 2.4000e+03 1.7898e+04 8.7780e+03]
Layer:  3   [3.1720e+03 1.6505e+04 8.1610e+03 1.3518e+04 1.7301e+04 1.4222e+04
 9.0150e+03 1.1729e+04 7.3900e+03 1.3680e+03 1.2115e+04 4.9340e+03
 1.5396e+04 3.2300e+02 1.2328e+04 1.1702e+04 1.6884e+04 5.7700e+03
 1.0725e+04 5.9910e+03 1.7475e+04 1.8831e+04 3.5730e+03 1.4690e+04
 1.2364e+04 5.1550e+03 1.4454e+04 1.3136e+04 1.0461e+04 1.6628e+04
 7.9010e+03 3.9520e+03 4.9110e+03 1.5532e+04 1.3997e+04 1.0120e+04
 1.2936e+04 2.4760e+03 3.1740e+03 1.0109e+04 1.5431e+04 1.9262e+04
 1.0582e+04 4.8000e+02 1.0117e+04 1.0351e+04 1.4454e+04 6.7840e+03
 8.1400e+03 5.6430e+03 4.0960e+03 1.8362e+04 1.0491e+04 1.6884e+04
 8.6640e+03 1.0348e+04 3.3970e+03 1.8819e+04 6.1090e+03 9.3180e+03
 2.7440e+03 1.7760e+03 1.6546e+04 1.6502e+04 1.8906e+04 6.8440e+03
 1.5436e+04 1.7865e+04 1.7355e+04 1.0433e+04 8.4300e+02 1.6896e+04
 1.2370e+03 5.1580e+03 3.3170e+03 6.8490e+03 1.8339e+04 1.1089e+04
 7.7410e+03 7.9940e+03 4.2110e+03 1.3489e+04 1.3472e+04 1.8831e+04
 1.6084e+04 7.8250e+03 8.8400e+02 4.0070e+03 3.3770e+03 4.6170e+03
 6.3190e+03 3.3970e+03 1.0869e+04 8.9700e+03 8.2660e+03 1.9059e+04
 1.0958e+04 4.9700e+02 3.7500e+02 3.0200e+03 1.1510e+03 1.2144e+04
 4.2120e+03 5.6500e+02 1.1558e+04 2.3710e+03 1.8175e+04 1.3104e+04
 2.5830e+03 1.2116e+04 1.3393e+04 1.8252e+04 1.8649e+04 4.7400e+03
 1.0009e+04 6.3850e+03 9.1750e+03 1.7628e+04 7.4930e+03 1.2115e+04
 4.4330e+03 3.8390e+03 8.9000e+03 1.3562e+04 1.0457e+04 1.9447e+04
 1.9546e+04 1.4581e+04 1.2657e+04 5.1600e+02 6.8440e+03 9.3090e+03
 3.4040e+03 3.2850e+03 1.3268e+04 1.6310e+03 7.5150e+03 1.1853e+04
 1.1293e+04 1.4081e+04 1.3777e+04 1.7948e+04 9.1640e+03 1.3939e+04
 1.3783e+04 1.2115e+04 6.8490e+03 8.3540e+03 2.1070e+03 1.7307e+04
 8.6510e+03 1.5194e+04 1.2942e+04 1.7804e+04 1.1492e+04 1.1960e+04
 1.0168e+04 9.1790e+03 5.6900e+02 4.7230e+03 5.0760e+03 7.9620e+03
 3.8050e+03 1.8812e+04 1.6320e+04 6.1670e+03 1.8620e+03 9.6070e+03
 1.3140e+04 1.1082e+04 4.1530e+03 1.4956e+04 3.7710e+03 8.5100e+02
 1.5507e+04 1.6470e+04 1.6198e+04 5.1930e+03 8.0770e+03 2.3410e+03
 4.9400e+02 1.5041e+04 1.5412e+04 1.0488e+04 1.1000e+01 6.1670e+03
 3.9280e+03 1.5960e+04 6.3480e+03 1.2085e+04 9.1000e+01 2.1200e+02
 1.2115e+04 4.6480e+03 1.5286e+04 1.7081e+04 1.6884e+04 2.9270e+03
 1.3257e+04 1.6441e+04 1.0317e+04 5.3320e+03 3.6980e+03 1.2521e+04
 1.4437e+04 9.6070e+03 5.6140e+03 3.7990e+03 1.5049e+04 3.8080e+03
 4.0660e+03 1.9570e+03 1.5125e+04 1.4716e+04 4.8000e+01 1.8831e+04
 1.7106e+04 9.6070e+03 1.7163e+04 1.0493e+04 1.4951e+04 2.2360e+03
 4.9320e+03 1.6101e+04 1.8228e+04 5.3560e+03 1.4222e+04 6.8490e+03
 1.6464e+04 5.3280e+03 1.1975e+04 1.7952e+04 7.2860e+03 1.6320e+04
 1.5363e+04 1.8906e+04 1.0930e+04 1.1754e+04 7.2080e+03 1.6091e+04
 1.0869e+04 9.9770e+03 2.8950e+03 1.5470e+03 5.4160e+03 1.0860e+04
 1.9345e+04 1.9641e+04 8.1380e+03 9.5780e+03 1.5393e+04 8.9000e+03
 4.9700e+02 9.3100e+02 1.0029e+04 3.4940e+03 1.2820e+03 9.8950e+03
 1.4327e+04 1.2140e+04 6.1000e+02 1.9968e+04 1.0273e+04 5.6330e+03
 5.7680e+03 2.7170e+03 1.9114e+04 1.3010e+04 6.7100e+03 6.3280e+03
 1.0813e+04 1.5436e+04 1.8024e+04 3.9480e+03 1.5003e+04 6.4860e+03
 2.0940e+03 1.8510e+03 8.9420e+03 1.9775e+04 1.8441e+04 9.9460e+03
 1.0437e+04 3.9580e+03 1.8756e+04 1.2466e+04 1.8310e+03 3.6040e+03
 8.1370e+03 1.3790e+04 8.9000e+03 9.6070e+03 1.4690e+04 1.9323e+04
 1.6107e+04 3.0820e+03 1.7411e+04 7.1760e+03 3.3780e+03 1.2273e+04
 7.1140e+03 1.6582e+04 1.5330e+03 6.0260e+03 8.1930e+03 9.9170e+03
 1.9337e+04 1.9900e+04 1.9247e+04 5.3440e+03 2.0820e+03 7.6580e+03
 8.4630e+03 1.0700e+04]
Layer:  4   [1.6851e+04 4.8930e+03 1.2834e+04 1.8356e+04 3.2250e+03 1.4847e+04
 1.5751e+04 1.6000e+02 3.6310e+03 7.2200e+02 1.8379e+04 9.2480e+03
 7.4120e+03 1.7207e+04 1.3572e+04 1.4016e+04 1.1149e+04 9.3900e+03
 1.2705e+04 1.9500e+04 1.6386e+04 1.8090e+03 1.2058e+04 1.9603e+04
 1.7650e+04 8.2820e+03 1.4454e+04 1.2217e+04 1.0094e+04 1.0786e+04
 5.1660e+03 1.8883e+04 1.1154e+04 1.1249e+04 1.9592e+04 4.3490e+03
 1.1082e+04 1.6756e+04 1.2217e+04 1.2595e+04 1.5751e+04 1.5098e+04
 1.6749e+04 1.0582e+04 4.5230e+03 3.5900e+02 1.8908e+04 9.8580e+03
 1.5293e+04 1.6584e+04 1.0780e+03 4.9320e+03 1.8490e+04 1.6756e+04
 6.4860e+03 3.0200e+03 1.2209e+04 3.5900e+03 1.0526e+04 1.6884e+04
 1.3283e+04 5.2310e+03 5.5250e+03 9.5980e+03 1.3383e+04 3.9790e+03
 6.8790e+03 1.8066e+04 1.1823e+04 4.4820e+03 1.1282e+04 4.2940e+03
 3.4030e+03 8.1920e+03 9.2960e+03 5.3280e+03 4.8110e+03 1.4990e+03
 1.4237e+04 7.6100e+02 4.3490e+03 1.7638e+04 2.3770e+03 7.0810e+03
 3.9020e+03 1.9888e+04 8.6720e+03 8.1900e+02 4.9540e+03 8.2320e+03
 1.7889e+04 4.5590e+03 4.4460e+03 7.4130e+03 5.1580e+03 1.8769e+04
 1.0694e+04 1.9912e+04 1.2058e+04 1.8970e+04 7.6150e+03 1.6014e+04
 1.9092e+04 1.6386e+04 1.3724e+04 1.4796e+04 7.1090e+03 5.4750e+03
 1.1545e+04 1.3202e+04 2.7140e+03 1.0157e+04 4.1470e+03 1.1375e+04
 2.4700e+02 1.1981e+04 3.1840e+03 8.3970e+03 1.9411e+04 8.9420e+03
 7.1590e+03 4.6140e+03 1.3391e+04 1.2270e+04 1.2210e+04 5.3280e+03
 3.6610e+03 6.8880e+03 6.8580e+03 1.3202e+04 1.1948e+04 1.2337e+04
 1.2563e+04 1.6259e+04 7.2680e+03 1.9757e+04 4.3160e+03 2.3700e+03
 5.7700e+03 1.3220e+04 1.0074e+04 1.5583e+04 1.3008e+04 5.3020e+03
 1.2209e+04 9.5220e+03 1.8991e+04 3.2910e+03 1.7195e+04 1.9002e+04
 1.3043e+04 1.0397e+04 1.3911e+04 1.3035e+04 1.0162e+04 6.7840e+03
 1.0674e+04 5.5670e+03 1.8017e+04 6.4070e+03 3.2170e+03 1.8803e+04
 9.6980e+03 9.4800e+02 1.3562e+04 1.9601e+04 1.8805e+04 4.7280e+03
 1.4581e+04 5.1930e+03 7.9200e+03 1.1570e+04 2.4600e+02 1.5380e+03
 1.8882e+04 1.9071e+04 1.5290e+03 1.7777e+04 5.6110e+03 8.5000e+03
 1.9870e+03 2.1480e+03 5.3320e+03 3.1840e+03 6.6110e+03 9.7200e+03
 1.8740e+04 1.1270e+04 1.3156e+04 1.8218e+04 1.0272e+04 1.2357e+04
 4.5790e+03 4.7470e+03 9.3360e+03 1.5380e+03 7.5280e+03 1.0168e+04
 3.0350e+03 3.3770e+03 1.9280e+04 1.5900e+03 2.6310e+03 6.8780e+03
 1.4035e+04 1.1162e+04 3.0380e+03 6.4880e+03 9.8130e+03 3.2580e+03
 1.9966e+04 9.0860e+03 1.5556e+04 1.4254e+04 7.2900e+03 2.1790e+03
 1.0115e+04 4.1260e+03 1.0550e+04 3.2000e+01 1.2607e+04 5.3080e+03
 1.6038e+04 1.1768e+04 1.6571e+04 9.2520e+03 1.3283e+04 1.9270e+04
 1.0992e+04 1.0760e+03 9.6980e+03 3.5900e+03 3.1830e+03 1.2028e+04
 1.8918e+04 5.3660e+03 4.0900e+03 1.8902e+04 8.3700e+02 9.1630e+03
 9.0000e+00 8.6780e+03 9.8130e+03 6.7060e+03 5.1600e+02 1.7306e+04
 4.7740e+03 1.1443e+04 1.1103e+04 8.4070e+03 1.1068e+04 1.4435e+04
 1.5751e+04 1.1216e+04 1.5838e+04 1.1150e+03 1.0195e+04 1.0674e+04
 1.5125e+04 1.9675e+04 1.8058e+04 1.4222e+04 1.9286e+04 1.2472e+04
 1.2880e+03 1.0464e+04 2.3000e+02 9.6070e+03 1.1185e+04 7.3720e+03
 1.4631e+04 1.8547e+04 8.5490e+03 1.1270e+04 9.0290e+03 6.4720e+03
 1.4903e+04 9.5720e+03 1.0138e+04 2.4810e+03 8.3970e+03 8.6390e+03
 9.6130e+03 5.4250e+03 1.0813e+04 1.7380e+03 1.3261e+04 1.7245e+04
 1.5470e+03 2.9960e+03 1.5500e+03 1.4202e+04 1.5088e+04 7.1100e+03
 1.4222e+04 5.2140e+03 1.1916e+04 1.8883e+04 1.6571e+04 7.3030e+03
 1.6091e+04 1.4237e+04 1.4222e+04 1.7307e+04 2.8950e+03 1.4554e+04
 5.1010e+03 1.2982e+04 3.0350e+03 1.1400e+03 2.2330e+03 1.5540e+04
 1.5271e+04 1.8539e+04 1.8284e+04 1.7749e+04 1.5828e+04 1.4493e+04
 9.7390e+03 1.9092e+04 1.9285e+04 4.4070e+03 8.3970e+03 6.6710e+03
 1.3256e+04 1.2209e+04 3.5900e+03 1.9220e+03 1.4690e+04 1.9493e+04
 1.3404e+04 1.9615e+04 1.4280e+04 7.1100e+03 1.2597e+04 1.0171e+04
 1.8079e+04 1.9269e+04 1.1610e+04 1.5088e+04 7.9460e+03 5.5440e+03
 1.8194e+04 8.1130e+03 3.5190e+03 1.2390e+03 1.6628e+04 1.3779e+04
 1.9433e+04 5.3430e+03 1.6500e+02 1.2003e+04 1.6386e+04 9.4670e+03
 6.5250e+03 1.0437e+04 1.3155e+04 2.9170e+03 1.7537e+04 6.3650e+03
 6.1300e+03 1.3814e+04 1.4600e+03 4.5050e+03 2.1790e+03 1.7070e+03
 1.4770e+04 1.3806e+04 2.3690e+03 1.3251e+04 7.4290e+03 4.5070e+03
 2.5110e+03 6.2980e+03 1.5896e+04 1.7230e+03 9.1580e+03 1.5979e+04
 1.3851e+04 1.3993e+04 4.3490e+03 1.1038e+04 1.8242e+04 6.9420e+03
 1.5946e+04 1.0157e+04 1.4122e+04 3.0380e+03 1.0672e+04 6.9840e+03]
Layer:  5   [15306. 18774.  1351. 17475.  4148. 13814. 12525. 13304.  6894.  8648.
  6079.  8635.    68.  7170. 19638.  5827.  9610. 12799.  2301.   417.
  2791. 10970.  1478.  7314.  5533. 13411.  7252.  2955. 12946.  4300.
   830.  5501.   857.    99. 14237.  3661. 10155. 12320. 17245.  9506.
  4839.  7154. 14346. 15027. 11742. 18458. 12266.  1127. 18218. 12286.
  7515.  6624.  8648.  3449. 16854.  1135. 14389. 16717. 17386. 13863.
  9974. 19756.  5158. 14186. 10358. 16348. 12217. 12920.  3553. 17306.
 12533.  7314. 13863.  8262.  6409.  4342. 18748. 16837.   931. 13075.
  5693. 17245.  6792.  6269. 15458.  4091. 16091.  5746.  8699. 13647.
 17858. 16717. 11676. 11896.  2179.  8433. 12187. 10788.  7941.   106.
 12655.  7193.  8327.  1127.  8350.  7508.  5124.  2370. 19456.  1984.
  6839.  2060.  5686. 15979.  4583.  1616.  5279.  9951. 14205.]
Layer:  6   [18356.  3064.   701. 15377. 15238.  1669. 11230. 10048.  7412. 12595.
 17566.  7606. 11525.  4646.  9624. 12727. 13748.  9432.  4643. 12061.
 17306.  6967.  3661.  5021.  8978. 18175. 19561.  2191. 11424. 15027.
  3613. 14346. 18218. 13048. 18621.  5076.   436. 19910. 13939. 13650.
 13048. 11381. 17456. 13653.  4738. 11322. 13205.  7268.  3724. 11732.
  7506.  6893. 15478.  5425. 13092. 12003. 16091.  5632. 14626.  9939.
  3373.  3064.  7442.  6790. 16237.  3916.  9881. 19847. 12018.  7574.
  4606. 15209. 13726.  6365. 13061. 18476.  9583.  4808. 19285. 16916.
 18476.  3620. 12381. 12026. 12942.]
Layer:  7   [14956. 15458. 17455. 13444.  2060. 11230.  9120.  3680.  2661.  4405.
 13762. 16913. 13693.  7252.  1957. 11831.  2471. 16106.  5146. 17859.
  3661. 19169.  6024.  4755. 17517. 17112.  8828. 11819.  4624.  4440.
 18218.  5970.  1672. 15390.  5076. 10488. 15135.  1485. 11322. 18358.
  3724.  7762. 12058. 19657. 16091. 11532. 19214.  2189. 18113.  6477.
 10037.  3213.]
Layer:  8   [13168. 11099. 15801.  4755.   371. 11819.  5495.  4405.  3413.  9752.
 16265.   464. 17859. 15325. 19169.  6974.  4755.  5525. 14903. 10488.
 10488. 13075.  9390. 18818.  3093. 18515. 15146. 13379.  3007. 11772.
 19017.  7994.   464. 14377.  9221.  1076. 10700. 19391.  3091. 10622.
 18069.  5523. 11602.]
Layer:  9   [ 1532.   607.  7442.  8757. 18485. 13012. 14451.  8311. 11356.  2068.
 10149.  4755.  2839.  6024. 13226.  6024.  8245. 10141. 16481. 12980.
 17749. 17455.  1244.  6180. 11997.  1897. 19408.  9913. 11978.  6888.
  3835. 12963.  9081.  5860.  4931.   884. 11937.  1160. 19241.  8350.
 14610. 10622.  5482.  2579. 14235. 13012.  2989. 15390. 19847.  8867.
 10348. 13000.  8341. 17391.  2068. 10537.  2934.  4755.  4177. 19391.
 13075. 13444.  3007. 11286. 13075.  6010.  3582. 19493.  8925.  7193.
 13487.  9867. 17002.  7968.  5382.  5224.   278.  7820.  5366. 10081.
  6232. 13075.  3613. 11548.  5096. 17833. 11912. 11469.  8350.  3415.
 17566.  5203.  4485.  1030.  9524. 13451. 16683.  7067. 19371.  2030.
 10981.]
Total_attention forwar=7680, Total reuse=3331
Layer:  11   [1.2668e+04 1.4406e+04 3.2820e+03 6.8190e+03 1.8920e+04 1.7646e+04
 1.0045e+04 1.1860e+04 9.4410e+03 2.0450e+03 5.7540e+03 4.9270e+03
 1.0075e+04 2.8450e+03 2.4140e+03 9.6860e+03 1.2432e+04 8.9320e+03
 6.2300e+03 1.7722e+04 1.9838e+04 1.1600e+03 1.6427e+04 1.8685e+04
 1.2572e+04 1.2656e+04 4.6930e+03 5.8810e+03 6.1880e+03 1.2298e+04
 8.9250e+03 3.8730e+03 1.4445e+04 6.0780e+03 1.5690e+04 7.7900e+02
 3.2840e+03 8.2440e+03 6.0880e+03 5.9740e+03 1.9432e+04 5.6000e+01
 1.1981e+04 1.7351e+04 5.0210e+03 6.0510e+03 1.5849e+04 7.2780e+03
 1.6357e+04 1.3444e+04 1.5621e+04 1.1605e+04 2.8370e+03 5.3820e+03
 1.6118e+04 2.0270e+03 7.3740e+03 1.7870e+03 1.0045e+04 1.3877e+04
 4.2990e+03 1.3793e+04 8.9940e+03 1.2006e+04 7.1210e+03 1.4357e+04
 4.4750e+03 4.0640e+03 1.7498e+04 1.1551e+04 1.1605e+04 1.4202e+04
 1.8378e+04 1.6002e+04 1.6486e+04 1.8154e+04 7.1360e+03 1.0820e+04
 8.6070e+03 9.8880e+03 1.5142e+04 6.4390e+03 4.9310e+03 9.7320e+03
 5.6000e+01 1.9346e+04 7.6280e+03 1.3316e+04 3.0200e+02 2.3530e+03
 1.3819e+04 9.6020e+03 1.9099e+04 8.8780e+03 3.8900e+03 1.1980e+03
 8.4300e+02 1.9592e+04 1.8685e+04 4.0100e+03 9.9160e+03 1.7046e+04
 1.8308e+04 8.7660e+03 1.7498e+04 1.3143e+04 3.9280e+03 9.2210e+03
 1.2151e+04 8.5100e+02 1.8866e+04 5.5670e+03 1.6239e+04 1.5579e+04
 8.6070e+03 6.9740e+03 1.3853e+04 1.1980e+03 1.9210e+04 1.6220e+03
 5.3820e+03 1.4629e+04 6.0310e+03 9.5570e+03 1.0493e+04 2.4870e+03
 1.9924e+04 5.9910e+03 1.9432e+04 1.8217e+04 4.8530e+03 1.9002e+04
 7.0370e+03 7.7100e+02 1.1920e+03 1.2490e+03 1.1356e+04 1.6239e+04
 1.7303e+04 1.6230e+04 1.6063e+04 6.0780e+03 4.8320e+03 1.5497e+04
 7.7170e+03 1.3878e+04 1.9002e+04 1.6245e+04 1.8214e+04 9.6860e+03
 1.7821e+04 5.9110e+03 4.4440e+03 1.2697e+04 3.3670e+03 1.8135e+04
 9.7260e+03 9.1380e+03 4.8090e+03 9.9770e+03 1.2300e+04 9.8800e+03
 1.7811e+04 6.4120e+03 6.3190e+03 2.9640e+03 1.0485e+04 2.8350e+03
 1.6900e+02 1.7455e+04 6.8560e+03 5.6000e+01 1.3184e+04 1.8592e+04
 8.8360e+03 1.6877e+04 1.4655e+04 1.4038e+04 6.0600e+03 1.0990e+04
 9.3080e+03 1.5424e+04 1.0389e+04 6.8330e+03 3.1370e+03 6.1880e+03
 1.3308e+04 1.5842e+04 8.9000e+03 1.7438e+04 7.3060e+03 7.1100e+03
 4.5010e+03 1.2048e+04 1.9373e+04 1.6362e+04 4.8290e+03 9.4280e+03
 1.5143e+04 1.6243e+04 3.8640e+03 1.3400e+04 1.3806e+04 9.8250e+03
 1.5873e+04 1.6926e+04 5.7740e+03 8.1300e+03 1.8316e+04 1.3913e+04
 1.5127e+04 1.0904e+04 1.6531e+04 1.1810e+03 1.8310e+03 1.8250e+04
 1.1600e+04 1.3104e+04 4.6380e+03 5.3920e+03 3.2550e+03 1.4543e+04
 1.1000e+01 1.0318e+04 2.2780e+03 1.4105e+04 1.6239e+04 1.9582e+04
 1.2210e+04 9.9310e+03 1.6106e+04 1.1030e+03 1.1413e+04 1.8145e+04
 7.0340e+03 1.9205e+04 7.0530e+03 8.3900e+03 8.7270e+03 1.0904e+04
 6.9700e+02 6.8550e+03 2.7530e+03 2.7140e+03 6.9130e+03 1.0617e+04
 1.3012e+04 1.7873e+04 5.7640e+03 7.5340e+03 3.1800e+02 1.8861e+04
 1.9205e+04 1.0056e+04 1.0259e+04 1.5036e+04 6.3360e+03 6.7980e+03
 1.6318e+04 8.2500e+02 1.3220e+04 1.1860e+04 1.5478e+04 1.5937e+04
 1.9665e+04 8.6720e+03 1.9358e+04 1.2497e+04 3.8640e+03 2.7600e+02
 8.4700e+03 3.2820e+03 1.4330e+04 1.1819e+04 1.0232e+04 5.8960e+03
 6.1880e+03 2.2540e+03 1.1150e+03 1.5696e+04 1.9212e+04 5.8080e+03
 4.4430e+03 1.3424e+04 1.4838e+04 1.5920e+03 1.7038e+04 1.4543e+04
 6.1860e+03 1.3543e+04 1.1542e+04 8.7770e+03 1.9823e+04 9.6200e+03
 1.7991e+04 5.9700e+03 1.1105e+04 1.1621e+04 7.2740e+03 1.2151e+04
 8.9870e+03 8.3540e+03 8.0920e+03 1.3187e+04 1.1900e+02 1.7459e+04
 3.7990e+03 1.3055e+04 9.5240e+03 1.8398e+04 6.9740e+03 1.2548e+04
 1.1819e+04 1.1270e+04 7.3390e+03 3.8660e+03 3.9280e+03 1.4731e+04
 1.2547e+04 3.2730e+03 1.6647e+04 8.5260e+03 1.9161e+04 7.9950e+03
 1.3636e+04 1.1958e+04 1.1732e+04]
05/24/2022 16:42:11 - INFO - datasets.metric - Removing /home/yuanfeng/.cache/huggingface/metrics/glue/sst2/default_experiment-1-0.arrow
***** eval metrics *****
  eval_accuracy           =        0.9
  eval_loss               =     0.2976
  eval_runtime            = 0:00:39.35
  eval_samples            =        640
  eval_samples_per_second =     16.263
  eval_steps_per_second   =      0.254
